(kicad_sch (version 20211123) (generator eeschema)

  (uuid b1875168-94d6-4da9-ae2d-0efee0e6c6a1)

  (paper "A4")

  (lib_symbols
    (symbol "74xx:74HC595" (in_bom yes) (on_board yes)
      (property "Reference" "U" (id 0) (at -7.62 13.97 0)
        (effects (font (size 1.27 1.27)))
      )
      (property "Value" "74HC595" (id 1) (at -7.62 -16.51 0)
        (effects (font (size 1.27 1.27)))
      )
      (property "Footprint" "" (id 2) (at 0 0 0)
        (effects (font (size 1.27 1.27)) hide)
      )
      (property "Datasheet" "http://www.ti.com/lit/ds/symlink/sn74hc595.pdf" (id 3) (at 0 0 0)
        (effects (font (size 1.27 1.27)) hide)
      )
      (property "ki_keywords" "HCMOS SR 3State" (id 4) (at 0 0 0)
        (effects (font (size 1.27 1.27)) hide)
      )
      (property "ki_description" "8-bit serial in/out Shift Register 3-State Outputs" (id 5) (at 0 0 0)
        (effects (font (size 1.27 1.27)) hide)
      )
      (property "ki_fp_filters" "DIP*W7.62mm* SOIC*3.9x9.9mm*P1.27mm* TSSOP*4.4x5mm*P0.65mm* SOIC*5.3x10.2mm*P1.27mm* SOIC*7.5x10.3mm*P1.27mm*" (id 6) (at 0 0 0)
        (effects (font (size 1.27 1.27)) hide)
      )
      (symbol "74HC595_1_0"
        (pin tri_state line (at 10.16 7.62 180) (length 2.54)
          (name "QB" (effects (font (size 1.27 1.27))))
          (number "1" (effects (font (size 1.27 1.27))))
        )
        (pin input line (at -10.16 2.54 0) (length 2.54)
          (name "~{SRCLR}" (effects (font (size 1.27 1.27))))
          (number "10" (effects (font (size 1.27 1.27))))
        )
        (pin input line (at -10.16 5.08 0) (length 2.54)
          (name "SRCLK" (effects (font (size 1.27 1.27))))
          (number "11" (effects (font (size 1.27 1.27))))
        )
        (pin input line (at -10.16 -2.54 0) (length 2.54)
          (name "RCLK" (effects (font (size 1.27 1.27))))
          (number "12" (effects (font (size 1.27 1.27))))
        )
        (pin input line (at -10.16 -5.08 0) (length 2.54)
          (name "~{OE}" (effects (font (size 1.27 1.27))))
          (number "13" (effects (font (size 1.27 1.27))))
        )
        (pin input line (at -10.16 10.16 0) (length 2.54)
          (name "SER" (effects (font (size 1.27 1.27))))
          (number "14" (effects (font (size 1.27 1.27))))
        )
        (pin tri_state line (at 10.16 10.16 180) (length 2.54)
          (name "QA" (effects (font (size 1.27 1.27))))
          (number "15" (effects (font (size 1.27 1.27))))
        )
        (pin power_in line (at 0 15.24 270) (length 2.54)
          (name "VCC" (effects (font (size 1.27 1.27))))
          (number "16" (effects (font (size 1.27 1.27))))
        )
        (pin tri_state line (at 10.16 5.08 180) (length 2.54)
          (name "QC" (effects (font (size 1.27 1.27))))
          (number "2" (effects (font (size 1.27 1.27))))
        )
        (pin tri_state line (at 10.16 2.54 180) (length 2.54)
          (name "QD" (effects (font (size 1.27 1.27))))
          (number "3" (effects (font (size 1.27 1.27))))
        )
        (pin tri_state line (at 10.16 0 180) (length 2.54)
          (name "QE" (effects (font (size 1.27 1.27))))
          (number "4" (effects (font (size 1.27 1.27))))
        )
        (pin tri_state line (at 10.16 -2.54 180) (length 2.54)
          (name "QF" (effects (font (size 1.27 1.27))))
          (number "5" (effects (font (size 1.27 1.27))))
        )
        (pin tri_state line (at 10.16 -5.08 180) (length 2.54)
          (name "QG" (effects (font (size 1.27 1.27))))
          (number "6" (effects (font (size 1.27 1.27))))
        )
        (pin tri_state line (at 10.16 -7.62 180) (length 2.54)
          (name "QH" (effects (font (size 1.27 1.27))))
          (number "7" (effects (font (size 1.27 1.27))))
        )
        (pin power_in line (at 0 -17.78 90) (length 2.54)
          (name "GND" (effects (font (size 1.27 1.27))))
          (number "8" (effects (font (size 1.27 1.27))))
        )
        (pin output line (at 10.16 -12.7 180) (length 2.54)
          (name "QH'" (effects (font (size 1.27 1.27))))
          (number "9" (effects (font (size 1.27 1.27))))
        )
      )
      (symbol "74HC595_1_1"
        (rectangle (start -7.62 12.7) (end 7.62 -15.24)
          (stroke (width 0.254) (type default) (color 0 0 0 0))
          (fill (type background))
        )
      )
    )
    (symbol "Connector:Conn_01x02_Female" (pin_names (offset 1.016) hide) (in_bom yes) (on_board yes)
      (property "Reference" "J" (id 0) (at 0 2.54 0)
        (effects (font (size 1.27 1.27)))
      )
      (property "Value" "Conn_01x02_Female" (id 1) (at 0 -5.08 0)
        (effects (font (size 1.27 1.27)))
      )
      (property "Footprint" "" (id 2) (at 0 0 0)
        (effects (font (size 1.27 1.27)) hide)
      )
      (property "Datasheet" "~" (id 3) (at 0 0 0)
        (effects (font (size 1.27 1.27)) hide)
      )
      (property "ki_keywords" "connector" (id 4) (at 0 0 0)
        (effects (font (size 1.27 1.27)) hide)
      )
      (property "ki_description" "Generic connector, single row, 01x02, script generated (kicad-library-utils/schlib/autogen/connector/)" (id 5) (at 0 0 0)
        (effects (font (size 1.27 1.27)) hide)
      )
      (property "ki_fp_filters" "Connector*:*_1x??_*" (id 6) (at 0 0 0)
        (effects (font (size 1.27 1.27)) hide)
      )
      (symbol "Conn_01x02_Female_1_1"
        (arc (start 0 -2.032) (mid -0.508 -2.54) (end 0 -3.048)
          (stroke (width 0.1524) (type default) (color 0 0 0 0))
          (fill (type none))
        )
        (polyline
          (pts
            (xy -1.27 -2.54)
            (xy -0.508 -2.54)
          )
          (stroke (width 0.1524) (type default) (color 0 0 0 0))
          (fill (type none))
        )
        (polyline
          (pts
            (xy -1.27 0)
            (xy -0.508 0)
          )
          (stroke (width 0.1524) (type default) (color 0 0 0 0))
          (fill (type none))
        )
        (arc (start 0 0.508) (mid -0.508 0) (end 0 -0.508)
          (stroke (width 0.1524) (type default) (color 0 0 0 0))
          (fill (type none))
        )
        (pin passive line (at -5.08 0 0) (length 3.81)
          (name "Pin_1" (effects (font (size 1.27 1.27))))
          (number "1" (effects (font (size 1.27 1.27))))
        )
        (pin passive line (at -5.08 -2.54 0) (length 3.81)
          (name "Pin_2" (effects (font (size 1.27 1.27))))
          (number "2" (effects (font (size 1.27 1.27))))
        )
      )
    )
    (symbol "Connector:Conn_01x03_Male" (pin_names (offset 1.016) hide) (in_bom yes) (on_board yes)
      (property "Reference" "J" (id 0) (at 0 5.08 0)
        (effects (font (size 1.27 1.27)))
      )
      (property "Value" "Conn_01x03_Male" (id 1) (at 0 -5.08 0)
        (effects (font (size 1.27 1.27)))
      )
      (property "Footprint" "" (id 2) (at 0 0 0)
        (effects (font (size 1.27 1.27)) hide)
      )
      (property "Datasheet" "~" (id 3) (at 0 0 0)
        (effects (font (size 1.27 1.27)) hide)
      )
      (property "ki_keywords" "connector" (id 4) (at 0 0 0)
        (effects (font (size 1.27 1.27)) hide)
      )
      (property "ki_description" "Generic connector, single row, 01x03, script generated (kicad-library-utils/schlib/autogen/connector/)" (id 5) (at 0 0 0)
        (effects (font (size 1.27 1.27)) hide)
      )
      (property "ki_fp_filters" "Connector*:*_1x??_*" (id 6) (at 0 0 0)
        (effects (font (size 1.27 1.27)) hide)
      )
      (symbol "Conn_01x03_Male_1_1"
        (polyline
          (pts
            (xy 1.27 -2.54)
            (xy 0.8636 -2.54)
          )
          (stroke (width 0.1524) (type default) (color 0 0 0 0))
          (fill (type none))
        )
        (polyline
          (pts
            (xy 1.27 0)
            (xy 0.8636 0)
          )
          (stroke (width 0.1524) (type default) (color 0 0 0 0))
          (fill (type none))
        )
        (polyline
          (pts
            (xy 1.27 2.54)
            (xy 0.8636 2.54)
          )
          (stroke (width 0.1524) (type default) (color 0 0 0 0))
          (fill (type none))
        )
        (rectangle (start 0.8636 -2.413) (end 0 -2.667)
          (stroke (width 0.1524) (type default) (color 0 0 0 0))
          (fill (type outline))
        )
        (rectangle (start 0.8636 0.127) (end 0 -0.127)
          (stroke (width 0.1524) (type default) (color 0 0 0 0))
          (fill (type outline))
        )
        (rectangle (start 0.8636 2.667) (end 0 2.413)
          (stroke (width 0.1524) (type default) (color 0 0 0 0))
          (fill (type outline))
        )
        (pin passive line (at 5.08 2.54 180) (length 3.81)
          (name "Pin_1" (effects (font (size 1.27 1.27))))
          (number "1" (effects (font (size 1.27 1.27))))
        )
        (pin passive line (at 5.08 0 180) (length 3.81)
          (name "Pin_2" (effects (font (size 1.27 1.27))))
          (number "2" (effects (font (size 1.27 1.27))))
        )
        (pin passive line (at 5.08 -2.54 180) (length 3.81)
          (name "Pin_3" (effects (font (size 1.27 1.27))))
          (number "3" (effects (font (size 1.27 1.27))))
        )
      )
    )
    (symbol "Device:C" (pin_numbers hide) (pin_names (offset 0.254)) (in_bom yes) (on_board yes)
      (property "Reference" "C" (id 0) (at 0.635 2.54 0)
        (effects (font (size 1.27 1.27)) (justify left))
      )
      (property "Value" "C" (id 1) (at 0.635 -2.54 0)
        (effects (font (size 1.27 1.27)) (justify left))
      )
      (property "Footprint" "" (id 2) (at 0.9652 -3.81 0)
        (effects (font (size 1.27 1.27)) hide)
      )
      (property "Datasheet" "~" (id 3) (at 0 0 0)
        (effects (font (size 1.27 1.27)) hide)
      )
      (property "ki_keywords" "cap capacitor" (id 4) (at 0 0 0)
        (effects (font (size 1.27 1.27)) hide)
      )
      (property "ki_description" "Unpolarized capacitor" (id 5) (at 0 0 0)
        (effects (font (size 1.27 1.27)) hide)
      )
      (property "ki_fp_filters" "C_*" (id 6) (at 0 0 0)
        (effects (font (size 1.27 1.27)) hide)
      )
      (symbol "C_0_1"
        (polyline
          (pts
            (xy -2.032 -0.762)
            (xy 2.032 -0.762)
          )
          (stroke (width 0.508) (type default) (color 0 0 0 0))
          (fill (type none))
        )
        (polyline
          (pts
            (xy -2.032 0.762)
            (xy 2.032 0.762)
          )
          (stroke (width 0.508) (type default) (color 0 0 0 0))
          (fill (type none))
        )
      )
      (symbol "C_1_1"
        (pin passive line (at 0 3.81 270) (length 2.794)
          (name "~" (effects (font (size 1.27 1.27))))
          (number "1" (effects (font (size 1.27 1.27))))
        )
        (pin passive line (at 0 -3.81 90) (length 2.794)
          (name "~" (effects (font (size 1.27 1.27))))
          (number "2" (effects (font (size 1.27 1.27))))
        )
      )
    )
    (symbol "Mechanical:MountingHole" (pin_names (offset 1.016)) (in_bom yes) (on_board yes)
      (property "Reference" "H" (id 0) (at 0 5.08 0)
        (effects (font (size 1.27 1.27)))
      )
      (property "Value" "MountingHole" (id 1) (at 0 3.175 0)
        (effects (font (size 1.27 1.27)))
      )
      (property "Footprint" "" (id 2) (at 0 0 0)
        (effects (font (size 1.27 1.27)) hide)
      )
      (property "Datasheet" "~" (id 3) (at 0 0 0)
        (effects (font (size 1.27 1.27)) hide)
      )
      (property "ki_keywords" "mounting hole" (id 4) (at 0 0 0)
        (effects (font (size 1.27 1.27)) hide)
      )
      (property "ki_description" "Mounting Hole without connection" (id 5) (at 0 0 0)
        (effects (font (size 1.27 1.27)) hide)
      )
      (property "ki_fp_filters" "MountingHole*" (id 6) (at 0 0 0)
        (effects (font (size 1.27 1.27)) hide)
      )
      (symbol "MountingHole_0_1"
        (circle (center 0 0) (radius 1.27)
          (stroke (width 1.27) (type default) (color 0 0 0 0))
          (fill (type none))
        )
      )
    )
    (symbol "Seeeduino XIAO_ble:SeeeduinoXIAOBLE" (pin_names (offset 1.016)) (in_bom yes) (on_board yes)
      (property "Reference" "U" (id 0) (at 4.5594 -21.59 0)
        (effects (font (size 1.27 1.27)) (justify left))
      )
      (property "Value" "SeeeduinoXIAOBLE" (id 1) (at 4.5594 -24.13 0)
        (effects (font (size 1.27 1.27)) (justify left))
      )
      (property "Footprint" "m65:xiao-ble-tht" (id 2) (at -8.89 5.08 0)
        (effects (font (size 1.27 1.27)) hide)
      )
      (property "Datasheet" "" (id 3) (at -8.89 5.08 0)
        (effects (font (size 1.27 1.27)) hide)
      )
      (symbol "SeeeduinoXIAOBLE_0_1"
        (rectangle (start -19.05 20.32) (end 17.78 -19.05)
          (stroke (width 0) (type default) (color 0 0 0 0))
          (fill (type none))
        )
      )
      (symbol "SeeeduinoXIAOBLE_1_1"
        (pin unspecified line (at -21.59 11.43 0) (length 2.54)
          (name "PA02_A0_D0" (effects (font (size 1.27 1.27))))
          (number "1" (effects (font (size 1.27 1.27))))
        )
        (pin unspecified line (at 20.32 -3.81 180) (length 2.54)
          (name "PA5_A9_D9_MISO" (effects (font (size 1.27 1.27))))
          (number "10" (effects (font (size 1.27 1.27))))
        )
        (pin unspecified line (at 20.32 0 180) (length 2.54)
          (name "PA6_A10_D10_MOSI" (effects (font (size 1.27 1.27))))
          (number "11" (effects (font (size 1.27 1.27))))
        )
        (pin unspecified line (at 20.32 3.81 180) (length 2.54)
          (name "3V3" (effects (font (size 1.27 1.27))))
          (number "12" (effects (font (size 1.27 1.27))))
        )
        (pin unspecified line (at 20.32 7.62 180) (length 2.54)
          (name "GND" (effects (font (size 1.27 1.27))))
          (number "13" (effects (font (size 1.27 1.27))))
        )
        (pin unspecified line (at 20.32 11.43 180) (length 2.54)
          (name "5V" (effects (font (size 1.27 1.27))))
          (number "14" (effects (font (size 1.27 1.27))))
        )
        (pin unspecified line (at -5.08 22.86 270) (length 2.54)
          (name "DIO" (effects (font (size 1.27 1.27))))
          (number "15" (effects (font (size 1.27 1.27))))
        )
        (pin unspecified line (at -1.27 22.86 270) (length 2.54)
          (name "CLK" (effects (font (size 1.27 1.27))))
          (number "16" (effects (font (size 1.27 1.27))))
        )
        (pin unspecified line (at 2.54 22.86 270) (length 2.54)
          (name "RST" (effects (font (size 1.27 1.27))))
          (number "17" (effects (font (size 1.27 1.27))))
        )
        (pin unspecified line (at 6.35 22.86 270) (length 2.54)
          (name "GND" (effects (font (size 1.27 1.27))))
          (number "18" (effects (font (size 1.27 1.27))))
        )
        (pin unspecified line (at 2.54 -21.59 90) (length 2.54)
          (name "gnd" (effects (font (size 1.27 1.27))))
          (number "19" (effects (font (size 1.27 1.27))))
        )
        (pin unspecified line (at -21.59 7.62 0) (length 2.54)
          (name "PA4_A1_D1" (effects (font (size 1.27 1.27))))
          (number "2" (effects (font (size 1.27 1.27))))
        )
        (pin unspecified line (at -2.54 -21.59 90) (length 2.54)
          (name "bat" (effects (font (size 1.27 1.27))))
          (number "20" (effects (font (size 1.27 1.27))))
        )
        (pin unspecified line (at -15.24 -21.59 90) (length 2.54)
          (name "nfc1" (effects (font (size 1.27 1.27))))
          (number "21" (effects (font (size 1.27 1.27))))
        )
        (pin unspecified line (at -12.7 -21.59 90) (length 2.54)
          (name "nfc2" (effects (font (size 1.27 1.27))))
          (number "22" (effects (font (size 1.27 1.27))))
        )
        (pin unspecified line (at -21.59 3.81 0) (length 2.54)
          (name "PA10_A2_D2" (effects (font (size 1.27 1.27))))
          (number "3" (effects (font (size 1.27 1.27))))
        )
        (pin unspecified line (at -21.59 0 0) (length 2.54)
          (name "PA11_A3_D3" (effects (font (size 1.27 1.27))))
          (number "4" (effects (font (size 1.27 1.27))))
        )
        (pin unspecified line (at -21.59 -3.81 0) (length 2.54)
          (name "PA8_A4_D4_SDA" (effects (font (size 1.27 1.27))))
          (number "5" (effects (font (size 1.27 1.27))))
        )
        (pin unspecified line (at -21.59 -7.62 0) (length 2.54)
          (name "PA9_A5_D5_SCL" (effects (font (size 1.27 1.27))))
          (number "6" (effects (font (size 1.27 1.27))))
        )
        (pin unspecified line (at -21.59 -11.43 0) (length 2.54)
          (name "PB08_A6_D6_TX" (effects (font (size 1.27 1.27))))
          (number "7" (effects (font (size 1.27 1.27))))
        )
        (pin unspecified line (at 20.32 -11.43 180) (length 2.54)
          (name "PB09_A7_D7_RX" (effects (font (size 1.27 1.27))))
          (number "8" (effects (font (size 1.27 1.27))))
        )
        (pin unspecified line (at 20.32 -7.62 180) (length 2.54)
          (name "PA7_A8_D8_SCK" (effects (font (size 1.27 1.27))))
          (number "9" (effects (font (size 1.27 1.27))))
        )
      )
    )
    (symbol "Switch:SW_Push" (pin_numbers hide) (pin_names (offset 1.016) hide) (in_bom yes) (on_board yes)
      (property "Reference" "SW" (id 0) (at 1.27 2.54 0)
        (effects (font (size 1.27 1.27)) (justify left))
      )
      (property "Value" "SW_Push" (id 1) (at 0 -1.524 0)
        (effects (font (size 1.27 1.27)))
      )
      (property "Footprint" "" (id 2) (at 0 5.08 0)
        (effects (font (size 1.27 1.27)) hide)
      )
      (property "Datasheet" "~" (id 3) (at 0 5.08 0)
        (effects (font (size 1.27 1.27)) hide)
      )
      (property "ki_keywords" "switch normally-open pushbutton push-button" (id 4) (at 0 0 0)
        (effects (font (size 1.27 1.27)) hide)
      )
      (property "ki_description" "Push button switch, generic, two pins" (id 5) (at 0 0 0)
        (effects (font (size 1.27 1.27)) hide)
      )
      (symbol "SW_Push_0_1"
        (circle (center -2.032 0) (radius 0.508)
          (stroke (width 0) (type default) (color 0 0 0 0))
          (fill (type none))
        )
        (polyline
          (pts
            (xy 0 1.27)
            (xy 0 3.048)
          )
          (stroke (width 0) (type default) (color 0 0 0 0))
          (fill (type none))
        )
        (polyline
          (pts
            (xy 2.54 1.27)
            (xy -2.54 1.27)
          )
          (stroke (width 0) (type default) (color 0 0 0 0))
          (fill (type none))
        )
        (circle (center 2.032 0) (radius 0.508)
          (stroke (width 0) (type default) (color 0 0 0 0))
          (fill (type none))
        )
        (pin passive line (at -5.08 0 0) (length 2.54)
          (name "1" (effects (font (size 1.27 1.27))))
          (number "1" (effects (font (size 1.27 1.27))))
        )
        (pin passive line (at 5.08 0 180) (length 2.54)
          (name "2" (effects (font (size 1.27 1.27))))
          (number "2" (effects (font (size 1.27 1.27))))
        )
      )
    )
    (symbol "Switch:SW_SPDT" (pin_names (offset 0) hide) (in_bom yes) (on_board yes)
      (property "Reference" "SW" (id 0) (at 0 4.318 0)
        (effects (font (size 1.27 1.27)))
      )
      (property "Value" "SW_SPDT" (id 1) (at 0 -5.08 0)
        (effects (font (size 1.27 1.27)))
      )
      (property "Footprint" "" (id 2) (at 0 0 0)
        (effects (font (size 1.27 1.27)) hide)
      )
      (property "Datasheet" "~" (id 3) (at 0 0 0)
        (effects (font (size 1.27 1.27)) hide)
      )
      (property "ki_keywords" "switch single-pole double-throw spdt ON-ON" (id 4) (at 0 0 0)
        (effects (font (size 1.27 1.27)) hide)
      )
      (property "ki_description" "Switch, single pole double throw" (id 5) (at 0 0 0)
        (effects (font (size 1.27 1.27)) hide)
      )
      (symbol "SW_SPDT_0_0"
        (circle (center -2.032 0) (radius 0.508)
          (stroke (width 0) (type default) (color 0 0 0 0))
          (fill (type none))
        )
        (circle (center 2.032 -2.54) (radius 0.508)
          (stroke (width 0) (type default) (color 0 0 0 0))
          (fill (type none))
        )
      )
      (symbol "SW_SPDT_0_1"
        (polyline
          (pts
            (xy -1.524 0.254)
            (xy 1.651 2.286)
          )
          (stroke (width 0) (type default) (color 0 0 0 0))
          (fill (type none))
        )
        (circle (center 2.032 2.54) (radius 0.508)
          (stroke (width 0) (type default) (color 0 0 0 0))
          (fill (type none))
        )
      )
      (symbol "SW_SPDT_1_1"
        (pin passive line (at 5.08 2.54 180) (length 2.54)
          (name "A" (effects (font (size 1.27 1.27))))
          (number "1" (effects (font (size 1.27 1.27))))
        )
        (pin passive line (at -5.08 0 0) (length 2.54)
          (name "B" (effects (font (size 1.27 1.27))))
          (number "2" (effects (font (size 1.27 1.27))))
        )
        (pin passive line (at 5.08 -2.54 180) (length 2.54)
          (name "C" (effects (font (size 1.27 1.27))))
          (number "3" (effects (font (size 1.27 1.27))))
        )
      )
    )
    (symbol "diode:1N4148" (pin_numbers hide) (pin_names (offset 1.016) hide) (in_bom yes) (on_board yes)
      (property "Reference" "D65" (id 0) (at 0 2.54 0)
        (effects (font (size 1.27 1.27)))
      )
      (property "Value" "1N4148" (id 1) (at 0 -2.54 0)
        (effects (font (size 1.27 1.27)) hide)
      )
      (property "Footprint" "m65:diode_v" (id 2) (at 0 0 0)
        (effects (font (size 1.27 1.27)) hide)
      )
      (property "Datasheet" "~" (id 3) (at 0 0 0)
        (effects (font (size 1.27 1.27)) hide)
      )
      (property "ki_keywords" "diode" (id 4) (at 0 0 0)
        (effects (font (size 1.27 1.27)) hide)
      )
      (property "ki_description" "Diode" (id 5) (at 0 0 0)
        (effects (font (size 1.27 1.27)) hide)
      )
      (property "ki_fp_filters" "TO-???* *_Diode_* *SingleDiode* D_*" (id 6) (at 0 0 0)
        (effects (font (size 1.27 1.27)) hide)
      )
      (symbol "1N4148_0_1"
        (polyline
          (pts
            (xy -1.27 1.27)
            (xy -1.27 -1.27)
          )
          (stroke (width 0.254) (type default) (color 0 0 0 0))
          (fill (type none))
        )
        (polyline
          (pts
            (xy 1.27 0)
            (xy -1.27 0)
          )
          (stroke (width 0) (type default) (color 0 0 0 0))
          (fill (type none))
        )
        (polyline
          (pts
            (xy 1.27 1.27)
            (xy 1.27 -1.27)
            (xy -1.27 0)
            (xy 1.27 1.27)
          )
          (stroke (width 0.254) (type default) (color 0 0 0 0))
          (fill (type none))
        )
      )
      (symbol "1N4148_1_1"
        (pin passive line (at -3.81 0 0) (length 2.54)
          (name "K" (effects (font (size 1.27 1.27))))
          (number "1" (effects (font (size 1.27 1.27))))
        )
        (pin passive line (at 3.81 0 180) (length 2.54)
          (name "A" (effects (font (size 1.27 1.27))))
          (number "2" (effects (font (size 1.27 1.27))))
        )
      )
    )
    (symbol "kbd:OLED" (pin_names (offset 1.016)) (in_bom yes) (on_board yes)
      (property "Reference" "OL" (id 0) (at 0 2.54 0)
        (effects (font (size 1.2954 1.2954)))
      )
      (property "Value" "kbd_OLED" (id 1) (at 0 -1.27 0)
        (effects (font (size 1.1938 1.1938)))
      )
      (property "Footprint" "" (id 2) (at 0 2.54 0)
        (effects (font (size 1.524 1.524)) hide)
      )
      (property "Datasheet" "" (id 3) (at 0 2.54 0)
        (effects (font (size 1.524 1.524)) hide)
      )
      (symbol "OLED_0_1"
        (rectangle (start -13.97 8.89) (end 15.24 -7.62)
          (stroke (width 0) (type default) (color 0 0 0 0))
          (fill (type none))
        )
      )
      (symbol "OLED_1_1"
        (pin bidirectional line (at -19.05 6.35 0) (length 5.08)
          (name "SDA" (effects (font (size 1.27 1.27))))
          (number "1" (effects (font (size 1.27 1.27))))
        )
        (pin bidirectional line (at -19.05 2.54 0) (length 5.08)
          (name "SCL" (effects (font (size 1.27 1.27))))
          (number "2" (effects (font (size 1.27 1.27))))
        )
        (pin power_in line (at -19.05 -1.27 0) (length 5.08)
          (name "VCC" (effects (font (size 1.27 1.27))))
          (number "3" (effects (font (size 1.27 1.27))))
        )
        (pin power_in line (at -19.05 -5.08 0) (length 5.08)
          (name "GND" (effects (font (size 1.27 1.27))))
          (number "4" (effects (font (size 1.27 1.27))))
        )
      )
    )
    (symbol "power:+BATT" (power) (pin_names (offset 0)) (in_bom yes) (on_board yes)
      (property "Reference" "#PWR" (id 0) (at 0 -3.81 0)
        (effects (font (size 1.27 1.27)) hide)
      )
      (property "Value" "+BATT" (id 1) (at 0 3.556 0)
        (effects (font (size 1.27 1.27)))
      )
      (property "Footprint" "" (id 2) (at 0 0 0)
        (effects (font (size 1.27 1.27)) hide)
      )
      (property "Datasheet" "" (id 3) (at 0 0 0)
        (effects (font (size 1.27 1.27)) hide)
      )
      (property "ki_keywords" "power-flag battery" (id 4) (at 0 0 0)
        (effects (font (size 1.27 1.27)) hide)
      )
      (property "ki_description" "Power symbol creates a global label with name \"+BATT\"" (id 5) (at 0 0 0)
        (effects (font (size 1.27 1.27)) hide)
      )
      (symbol "+BATT_0_1"
        (polyline
          (pts
            (xy -0.762 1.27)
            (xy 0 2.54)
          )
          (stroke (width 0) (type default) (color 0 0 0 0))
          (fill (type none))
        )
        (polyline
          (pts
            (xy 0 0)
            (xy 0 2.54)
          )
          (stroke (width 0) (type default) (color 0 0 0 0))
          (fill (type none))
        )
        (polyline
          (pts
            (xy 0 2.54)
            (xy 0.762 1.27)
          )
          (stroke (width 0) (type default) (color 0 0 0 0))
          (fill (type none))
        )
      )
      (symbol "+BATT_1_1"
        (pin power_in line (at 0 0 90) (length 0) hide
          (name "+BATT" (effects (font (size 1.27 1.27))))
          (number "1" (effects (font (size 1.27 1.27))))
        )
      )
    )
    (symbol "power:-BATT" (power) (pin_names (offset 0)) (in_bom yes) (on_board yes)
      (property "Reference" "#PWR" (id 0) (at 0 -3.81 0)
        (effects (font (size 1.27 1.27)) hide)
      )
      (property "Value" "-BATT" (id 1) (at 0 3.556 0)
        (effects (font (size 1.27 1.27)))
      )
      (property "Footprint" "" (id 2) (at 0 0 0)
        (effects (font (size 1.27 1.27)) hide)
      )
      (property "Datasheet" "" (id 3) (at 0 0 0)
        (effects (font (size 1.27 1.27)) hide)
      )
      (property "ki_keywords" "power-flag battery" (id 4) (at 0 0 0)
        (effects (font (size 1.27 1.27)) hide)
      )
      (property "ki_description" "Power symbol creates a global label with name \"-BATT\"" (id 5) (at 0 0 0)
        (effects (font (size 1.27 1.27)) hide)
      )
      (symbol "-BATT_0_1"
        (polyline
          (pts
            (xy 0 0)
            (xy 0 2.54)
          )
          (stroke (width 0) (type default) (color 0 0 0 0))
          (fill (type none))
        )
        (polyline
          (pts
            (xy 0.762 1.27)
            (xy -0.762 1.27)
            (xy 0 2.54)
            (xy 0.762 1.27)
          )
          (stroke (width 0) (type default) (color 0 0 0 0))
          (fill (type outline))
        )
      )
      (symbol "-BATT_1_1"
        (pin power_in line (at 0 0 90) (length 0) hide
          (name "-BATT" (effects (font (size 1.27 1.27))))
          (number "1" (effects (font (size 1.27 1.27))))
        )
      )
    )
    (symbol "switch_encoder_mx:RotaryEncoder_Switch_mx" (pin_names (offset 0.254) hide) (in_bom yes) (on_board yes)
      (property "Reference" "SW" (id 0) (at 0 6.604 0)
        (effects (font (size 1.27 1.27)))
      )
      (property "Value" "RotaryEncoder_Switch_mx" (id 1) (at 0 -6.604 0)
        (effects (font (size 1.27 1.27)))
      )
      (property "Footprint" "" (id 2) (at -3.81 4.064 0)
        (effects (font (size 1.27 1.27)) hide)
      )
      (property "Datasheet" "~" (id 3) (at 0 6.604 0)
        (effects (font (size 1.27 1.27)) hide)
      )
      (property "ki_keywords" "rotary switch encoder switch push button" (id 4) (at 0 0 0)
        (effects (font (size 1.27 1.27)) hide)
      )
      (property "ki_description" "Rotary encoder, dual channel, incremental quadrate outputs, with switch" (id 5) (at 0 0 0)
        (effects (font (size 1.27 1.27)) hide)
      )
      (property "ki_fp_filters" "RotaryEncoder*Switch*" (id 6) (at 0 0 0)
        (effects (font (size 1.27 1.27)) hide)
      )
      (symbol "RotaryEncoder_Switch_mx_0_1"
        (rectangle (start -5.08 5.08) (end 5.08 -5.08)
          (stroke (width 0.254) (type default) (color 0 0 0 0))
          (fill (type background))
        )
        (circle (center -3.81 0) (radius 0.254)
          (stroke (width 0) (type default) (color 0 0 0 0))
          (fill (type outline))
        )
        (arc (start -0.381 -2.794) (mid 2.3622 -0.0508) (end -0.381 2.667)
          (stroke (width 0.254) (type default) (color 0 0 0 0))
          (fill (type none))
        )
        (circle (center -0.381 0) (radius 1.905)
          (stroke (width 0.254) (type default) (color 0 0 0 0))
          (fill (type none))
        )
        (polyline
          (pts
            (xy -0.635 -1.778)
            (xy -0.635 1.778)
          )
          (stroke (width 0.254) (type default) (color 0 0 0 0))
          (fill (type none))
        )
        (polyline
          (pts
            (xy -0.381 -1.778)
            (xy -0.381 1.778)
          )
          (stroke (width 0.254) (type default) (color 0 0 0 0))
          (fill (type none))
        )
        (polyline
          (pts
            (xy -0.127 1.778)
            (xy -0.127 -1.778)
          )
          (stroke (width 0.254) (type default) (color 0 0 0 0))
          (fill (type none))
        )
        (polyline
          (pts
            (xy 3.81 0)
            (xy 3.429 0)
          )
          (stroke (width 0.254) (type default) (color 0 0 0 0))
          (fill (type none))
        )
        (polyline
          (pts
            (xy 3.81 1.016)
            (xy 3.81 -1.016)
          )
          (stroke (width 0.254) (type default) (color 0 0 0 0))
          (fill (type none))
        )
        (polyline
          (pts
            (xy -5.08 -2.54)
            (xy -3.81 -2.54)
            (xy -3.81 -2.032)
          )
          (stroke (width 0) (type default) (color 0 0 0 0))
          (fill (type none))
        )
        (polyline
          (pts
            (xy -5.08 2.54)
            (xy -3.81 2.54)
            (xy -3.81 2.032)
          )
          (stroke (width 0) (type default) (color 0 0 0 0))
          (fill (type none))
        )
        (polyline
          (pts
            (xy 0.254 -3.048)
            (xy -0.508 -2.794)
            (xy 0.127 -2.413)
          )
          (stroke (width 0.254) (type default) (color 0 0 0 0))
          (fill (type none))
        )
        (polyline
          (pts
            (xy 0.254 2.921)
            (xy -0.508 2.667)
            (xy 0.127 2.286)
          )
          (stroke (width 0.254) (type default) (color 0 0 0 0))
          (fill (type none))
        )
        (polyline
          (pts
            (xy 5.08 -2.54)
            (xy 4.318 -2.54)
            (xy 4.318 -1.016)
          )
          (stroke (width 0.254) (type default) (color 0 0 0 0))
          (fill (type none))
        )
        (polyline
          (pts
            (xy 5.08 2.54)
            (xy 4.318 2.54)
            (xy 4.318 1.016)
          )
          (stroke (width 0.254) (type default) (color 0 0 0 0))
          (fill (type none))
        )
        (polyline
          (pts
            (xy -5.08 0)
            (xy -3.81 0)
            (xy -3.81 -1.016)
            (xy -3.302 -2.032)
          )
          (stroke (width 0) (type default) (color 0 0 0 0))
          (fill (type none))
        )
        (polyline
          (pts
            (xy -4.318 0)
            (xy -3.81 0)
            (xy -3.81 1.016)
            (xy -3.302 2.032)
          )
          (stroke (width 0) (type default) (color 0 0 0 0))
          (fill (type none))
        )
        (circle (center 4.318 -1.016) (radius 0.127)
          (stroke (width 0.254) (type default) (color 0 0 0 0))
          (fill (type none))
        )
        (circle (center 4.318 1.016) (radius 0.127)
          (stroke (width 0.254) (type default) (color 0 0 0 0))
          (fill (type none))
        )
      )
      (symbol "RotaryEncoder_Switch_mx_1_1"
        (pin passive line (at 7.62 -2.54 180) (length 2.54)
          (name "1" (effects (font (size 1.27 1.27))))
          (number "1" (effects (font (size 1.27 1.27))))
        )
        (pin passive line (at 7.62 2.54 180) (length 2.54)
          (name "2" (effects (font (size 1.27 1.27))))
          (number "2" (effects (font (size 1.27 1.27))))
        )
        (pin passive line (at -7.62 2.54 0) (length 2.54)
          (name "A" (effects (font (size 1.27 1.27))))
          (number "A" (effects (font (size 1.27 1.27))))
        )
        (pin passive line (at -7.62 -2.54 0) (length 2.54)
          (name "B" (effects (font (size 1.27 1.27))))
          (number "B" (effects (font (size 1.27 1.27))))
        )
        (pin passive line (at -7.62 0 0) (length 2.54)
          (name "C" (effects (font (size 1.27 1.27))))
          (number "C" (effects (font (size 1.27 1.27))))
        )
      )
    )
  )

  (junction (at 139.192 106.68) (diameter 0) (color 0 0 0 0)
    (uuid 0092f059-52fa-436e-a5bc-b7ac30b7e8d4)
  )
  (junction (at 139.192 114.554) (diameter 0) (color 0 0 0 0)
    (uuid 2af708be-b466-47f1-a116-01b539d15298)
  )
  (junction (at 139.192 111.76) (diameter 0) (color 0 0 0 0)
    (uuid 2d880308-f583-4223-aa2b-1e7c9e2c5c23)
  )
  (junction (at 80.01 69.85) (diameter 0) (color 0 0 0 0)
    (uuid 359dc8aa-5765-4a8b-b3be-6b21f2e4a7da)
  )
  (junction (at 80.01 52.07) (diameter 0) (color 0 0 0 0)
    (uuid 6ea90b49-ebe3-4a39-8daf-51306805e6db)
  )
  (junction (at 230.378 73.66) (diameter 0) (color 0 0 0 0)
    (uuid 7b66db51-3976-4b46-b757-95a374bf8bb8)
  )
  (junction (at 230.378 20.828) (diameter 0) (color 0 0 0 0)
    (uuid b51345e5-1f05-4c10-9644-1090c4a0b4be)
  )
  (junction (at 77.47 60.96) (diameter 0) (color 0 0 0 0)
    (uuid d844b355-44ea-4a90-86a0-cfb611289ce9)
  )
  (junction (at 63.5 60.96) (diameter 0) (color 0 0 0 0)
    (uuid e8d52619-213c-4f0f-ae66-d0ff1f8d41ce)
  )

  (no_connect (at 159.004 85.852) (uuid 04b830cc-feca-402a-86d3-c185e1a5c47f))
  (no_connect (at 180.594 41.402) (uuid 0e048c0a-b076-4b12-8686-6ef03ca47251))
  (no_connect (at 176.784 41.402) (uuid 0e048c0a-b076-4b12-8686-6ef03ca47252))
  (no_connect (at 172.974 41.402) (uuid 0e048c0a-b076-4b12-8686-6ef03ca47253))
  (no_connect (at 169.164 41.402) (uuid 0e048c0a-b076-4b12-8686-6ef03ca47254))
  (no_connect (at 194.564 68.072) (uuid 915adb6c-a7eb-48a7-9100-80a93e69b74c))
  (no_connect (at 156.972 109.22) (uuid a344bac9-91b3-4e4f-bf18-c494288a15a1))
  (no_connect (at 240.792 30.226) (uuid d3f5c9dc-24e1-4aae-9eb2-88801ac66788))
  (no_connect (at 240.538 32.766) (uuid d3f5c9dc-24e1-4aae-9eb2-88801ac66789))
  (no_connect (at 240.538 35.306) (uuid d3f5c9dc-24e1-4aae-9eb2-88801ac6678a))
  (no_connect (at 240.538 37.846) (uuid d3f5c9dc-24e1-4aae-9eb2-88801ac6678b))
  (no_connect (at 240.538 40.386) (uuid d3f5c9dc-24e1-4aae-9eb2-88801ac6678c))
  (no_connect (at 240.538 42.926) (uuid d3f5c9dc-24e1-4aae-9eb2-88801ac6678d))
  (no_connect (at 240.538 45.72) (uuid d3f5c9dc-24e1-4aae-9eb2-88801ac6678e))
  (no_connect (at 240.538 83.058) (uuid d3f5c9dc-24e1-4aae-9eb2-88801ac6678f))
  (no_connect (at 240.538 85.598) (uuid d3f5c9dc-24e1-4aae-9eb2-88801ac66790))
  (no_connect (at 240.538 88.138) (uuid d3f5c9dc-24e1-4aae-9eb2-88801ac66791))
  (no_connect (at 240.538 90.678) (uuid d3f5c9dc-24e1-4aae-9eb2-88801ac66792))
  (no_connect (at 240.538 93.218) (uuid d3f5c9dc-24e1-4aae-9eb2-88801ac66793))
  (no_connect (at 240.538 95.758) (uuid d3f5c9dc-24e1-4aae-9eb2-88801ac66794))
  (no_connect (at 240.538 98.298) (uuid d3f5c9dc-24e1-4aae-9eb2-88801ac66795))
  (no_connect (at 240.538 103.378) (uuid d3f5c9dc-24e1-4aae-9eb2-88801ac66796))
  (no_connect (at 161.544 85.852) (uuid ef57a608-621c-470d-8a85-7f4ab2ed6a20))

  (wire (pts (xy 148.59 68.072) (xy 152.654 68.072))
    (stroke (width 0) (type default) (color 0 0 0 0))
    (uuid 01cb6e5b-f182-4d2b-bcae-86b6454d0fb1)
  )
  (wire (pts (xy 82.55 55.88) (xy 80.01 55.88))
    (stroke (width 0) (type default) (color 0 0 0 0))
    (uuid 01e768f1-1d6e-40b5-a111-965d1ba59d25)
  )
  (wire (pts (xy 139.192 106.68) (xy 146.812 106.68))
    (stroke (width 0) (type default) (color 0 0 0 0))
    (uuid 0644e4d6-3028-4e16-bf74-f35e8f860098)
  )
  (wire (pts (xy 126.492 37.338) (xy 128.778 37.338))
    (stroke (width 0) (type default) (color 0 0 0 0))
    (uuid 07fdccd3-7f39-488c-b960-d0d7276e2c91)
  )
  (wire (pts (xy 148.59 60.452) (xy 152.654 60.452))
    (stroke (width 0) (type default) (color 0 0 0 0))
    (uuid 09281861-4931-4478-a41d-ba10491617cb)
  )
  (wire (pts (xy 194.564 71.882) (xy 197.866 71.882))
    (stroke (width 0) (type default) (color 0 0 0 0))
    (uuid 0a8bbd5a-1ffd-4faf-b786-64418366020e)
  )
  (wire (pts (xy 194.564 60.452) (xy 197.866 60.452))
    (stroke (width 0) (type default) (color 0 0 0 0))
    (uuid 0c47b3e8-bce1-47d8-845a-c3fb34fa51f1)
  )
  (wire (pts (xy 156.972 104.14) (xy 158.75 104.14))
    (stroke (width 0) (type default) (color 0 0 0 0))
    (uuid 1817e45d-2c8d-4bf1-ab0b-86f5f8be01ec)
  )
  (wire (pts (xy 77.47 78.74) (xy 77.47 60.96))
    (stroke (width 0) (type default) (color 0 0 0 0))
    (uuid 18e00dc5-2c59-496c-8a9f-84f3ecb3ac38)
  )
  (wire (pts (xy 220.218 66.04) (xy 242.57 66.04))
    (stroke (width 0) (type default) (color 0 0 0 0))
    (uuid 1bd82416-700e-4cc0-952c-262736b43b2f)
  )
  (wire (pts (xy 139.192 111.76) (xy 139.192 114.554))
    (stroke (width 0) (type default) (color 0 0 0 0))
    (uuid 1f37d9fd-3a88-4529-a4fc-321c324f4a9d)
  )
  (wire (pts (xy 66.04 73.66) (xy 66.04 69.85))
    (stroke (width 0) (type default) (color 0 0 0 0))
    (uuid 231bdd4b-468c-489f-96f5-c1700b973ae6)
  )
  (wire (pts (xy 230.378 73.406) (xy 230.378 73.66))
    (stroke (width 0) (type default) (color 0 0 0 0))
    (uuid 25f1178b-1d4c-4b53-8e5c-abae4bd5caee)
  )
  (wire (pts (xy 76.2 78.74) (xy 76.2 73.66))
    (stroke (width 0) (type default) (color 0 0 0 0))
    (uuid 3d5fde4d-f0de-496f-b644-a8eb44645b27)
  )
  (wire (pts (xy 87.63 55.88) (xy 90.17 55.88))
    (stroke (width 0) (type default) (color 0 0 0 0))
    (uuid 4294e0c6-082a-434c-ac72-9c710d696746)
  )
  (wire (pts (xy 220.218 66.04) (xy 220.218 80.518))
    (stroke (width 0) (type default) (color 0 0 0 0))
    (uuid 44ec3ad0-1456-4746-8494-6e5ba81eae8f)
  )
  (wire (pts (xy 147.574 52.832) (xy 152.654 52.832))
    (stroke (width 0) (type default) (color 0 0 0 0))
    (uuid 45ab7e29-3bad-43db-bd61-31214087fbb7)
  )
  (wire (pts (xy 68.58 78.74) (xy 63.5 78.74))
    (stroke (width 0) (type default) (color 0 0 0 0))
    (uuid 543e1013-7213-42e1-8360-925f9ff7c05d)
  )
  (wire (pts (xy 194.564 75.692) (xy 198.12 75.692))
    (stroke (width 0) (type default) (color 0 0 0 0))
    (uuid 59e65ba2-6535-4c22-bbbc-b5667dc4f8a5)
  )
  (wire (pts (xy 126.492 42.418) (xy 128.778 42.418))
    (stroke (width 0) (type default) (color 0 0 0 0))
    (uuid 5a4fff12-e20a-4bc6-9f22-be7fbf508144)
  )
  (wire (pts (xy 198.12 64.262) (xy 194.564 64.262))
    (stroke (width 0) (type default) (color 0 0 0 0))
    (uuid 5fae966b-ec47-4fe8-b879-b61d82ff421b)
  )
  (wire (pts (xy 147.574 56.642) (xy 152.654 56.642))
    (stroke (width 0) (type default) (color 0 0 0 0))
    (uuid 5fe769c5-2aca-4cc3-873e-33be0cfb5728)
  )
  (wire (pts (xy 136.652 111.76) (xy 139.192 111.76))
    (stroke (width 0) (type default) (color 0 0 0 0))
    (uuid 64fe3b4f-ebb9-41cf-b905-54f1f0294bf9)
  )
  (wire (pts (xy 82.55 60.96) (xy 77.47 60.96))
    (stroke (width 0) (type default) (color 0 0 0 0))
    (uuid 6577bb2d-e36a-4aa0-b40f-a1103737d1d6)
  )
  (wire (pts (xy 230.378 73.66) (xy 230.378 75.438))
    (stroke (width 0) (type default) (color 0 0 0 0))
    (uuid 65d84fc7-932c-40d8-9d09-9f72f784b41c)
  )
  (wire (pts (xy 139.192 106.68) (xy 139.192 109.22))
    (stroke (width 0) (type default) (color 0 0 0 0))
    (uuid 68ac7fe1-3c5b-4d4b-8683-86ef46f4b9a1)
  )
  (wire (pts (xy 87.63 53.34) (xy 87.63 55.88))
    (stroke (width 0) (type default) (color 0 0 0 0))
    (uuid 6d928557-e4fb-46fa-8935-64f073349cb8)
  )
  (wire (pts (xy 90.17 60.96) (xy 90.17 55.88))
    (stroke (width 0) (type default) (color 0 0 0 0))
    (uuid 6fac501b-e16e-4295-8366-152213a47b1d)
  )
  (wire (pts (xy 63.5 43.18) (xy 63.5 60.96))
    (stroke (width 0) (type default) (color 0 0 0 0))
    (uuid 738a112e-c8d4-43c8-baeb-78005f130c79)
  )
  (wire (pts (xy 215.646 32.766) (xy 220.218 32.766))
    (stroke (width 0) (type default) (color 0 0 0 0))
    (uuid 75c9cac4-27cd-416e-b1f3-bdf6a069ece1)
  )
  (wire (pts (xy 215.646 85.598) (xy 220.218 85.598))
    (stroke (width 0) (type default) (color 0 0 0 0))
    (uuid 75cae448-885f-4639-9525-43638f4240c5)
  )
  (wire (pts (xy 63.5 78.74) (xy 63.5 60.96))
    (stroke (width 0) (type default) (color 0 0 0 0))
    (uuid 78c525a9-0c41-4969-82b2-98b5acdfab2d)
  )
  (wire (pts (xy 230.378 20.828) (xy 230.378 22.606))
    (stroke (width 0) (type default) (color 0 0 0 0))
    (uuid 7b2c70ba-f376-436f-9866-c0956928f1b3)
  )
  (wire (pts (xy 80.01 55.88) (xy 80.01 52.07))
    (stroke (width 0) (type default) (color 0 0 0 0))
    (uuid 8172e302-c7c9-4e69-bbe2-8aaee0c5f1d2)
  )
  (wire (pts (xy 216.154 93.218) (xy 220.218 93.218))
    (stroke (width 0) (type default) (color 0 0 0 0))
    (uuid 8371a41e-75eb-4609-b7f8-cd1344ae5875)
  )
  (wire (pts (xy 240.538 50.546) (xy 242.57 50.546))
    (stroke (width 0) (type default) (color 0 0 0 0))
    (uuid 83d415cc-c420-4f99-b798-f0cdff336d16)
  )
  (wire (pts (xy 82.55 78.74) (xy 77.47 78.74))
    (stroke (width 0) (type default) (color 0 0 0 0))
    (uuid 8792fe3b-f9d9-404a-9c79-b9865c79f2ba)
  )
  (wire (pts (xy 126.492 39.878) (xy 128.778 39.878))
    (stroke (width 0) (type default) (color 0 0 0 0))
    (uuid 8a26efe5-6d06-49c6-acde-db1322293548)
  )
  (wire (pts (xy 77.47 43.18) (xy 77.47 60.96))
    (stroke (width 0) (type default) (color 0 0 0 0))
    (uuid 8a293b76-9888-45b7-be46-b9d91d16d731)
  )
  (wire (pts (xy 230.378 20.574) (xy 230.378 20.828))
    (stroke (width 0) (type default) (color 0 0 0 0))
    (uuid 8bf73047-f33c-465b-9b23-16d30c5a8ec9)
  )
  (wire (pts (xy 80.01 73.66) (xy 80.01 69.85))
    (stroke (width 0) (type default) (color 0 0 0 0))
    (uuid 93d61664-778c-4bef-a255-179eed9f02b1)
  )
  (wire (pts (xy 66.04 69.85) (xy 80.01 69.85))
    (stroke (width 0) (type default) (color 0 0 0 0))
    (uuid 9be144da-6ca0-4ab8-92fd-03bc293e1e5c)
  )
  (wire (pts (xy 82.55 53.34) (xy 82.55 55.88))
    (stroke (width 0) (type default) (color 0 0 0 0))
    (uuid 9eaa931c-2180-4635-a50e-db047b428821)
  )
  (wire (pts (xy 242.57 66.04) (xy 242.57 50.546))
    (stroke (width 0) (type default) (color 0 0 0 0))
    (uuid 9f843511-ff0a-487d-82aa-db798cc4ee2d)
  )
  (wire (pts (xy 216.154 40.386) (xy 220.218 40.386))
    (stroke (width 0) (type default) (color 0 0 0 0))
    (uuid a187f479-97ee-4cc9-b31e-97baaba1e5b1)
  )
  (wire (pts (xy 148.844 71.882) (xy 152.654 71.882))
    (stroke (width 0) (type default) (color 0 0 0 0))
    (uuid a9461390-4a8d-414f-b4ba-a8b1a11dfcfb)
  )
  (wire (pts (xy 230.378 55.626) (xy 230.378 57.912))
    (stroke (width 0) (type default) (color 0 0 0 0))
    (uuid aa5010fa-e007-40e5-ad3c-7cd336e1316d)
  )
  (wire (pts (xy 194.564 52.832) (xy 197.866 52.832))
    (stroke (width 0) (type default) (color 0 0 0 0))
    (uuid aa7339cc-9a6a-4980-bf73-0c7c8d5c92a2)
  )
  (wire (pts (xy 136.652 106.68) (xy 139.192 106.68))
    (stroke (width 0) (type default) (color 0 0 0 0))
    (uuid ac61e5b9-1ea9-48dd-8a12-572a13400a29)
  )
  (wire (pts (xy 80.01 69.85) (xy 93.98 69.85))
    (stroke (width 0) (type default) (color 0 0 0 0))
    (uuid b0104ab0-912e-4137-824a-e39579da42fb)
  )
  (wire (pts (xy 216.916 42.926) (xy 220.218 42.926))
    (stroke (width 0) (type default) (color 0 0 0 0))
    (uuid b029feab-aabc-4cec-a41a-ee56fec58c32)
  )
  (wire (pts (xy 215.646 27.686) (xy 220.218 27.686))
    (stroke (width 0) (type default) (color 0 0 0 0))
    (uuid b0cb53bc-1d7f-4b9d-aada-71be03027671)
  )
  (wire (pts (xy 76.2 60.96) (xy 76.2 55.88))
    (stroke (width 0) (type default) (color 0 0 0 0))
    (uuid b9cdd0ad-c77d-4417-bf46-ac18ffb51b8c)
  )
  (wire (pts (xy 66.04 52.07) (xy 80.01 52.07))
    (stroke (width 0) (type default) (color 0 0 0 0))
    (uuid ca7502a9-ff53-49ed-918f-a4f222fbcf19)
  )
  (wire (pts (xy 144.78 114.554) (xy 139.192 114.554))
    (stroke (width 0) (type default) (color 0 0 0 0))
    (uuid cc04fe25-a228-464a-8bd1-d3d3925d729a)
  )
  (wire (pts (xy 194.564 56.642) (xy 197.358 56.642))
    (stroke (width 0) (type default) (color 0 0 0 0))
    (uuid cefa4c94-0fe9-46c8-9370-0bdb5c6bff36)
  )
  (wire (pts (xy 240.538 27.686) (xy 245.11 27.686))
    (stroke (width 0) (type default) (color 0 0 0 0))
    (uuid d173327e-2a8b-4eef-95ac-101fd0540d9d)
  )
  (wire (pts (xy 148.59 64.262) (xy 152.654 64.262))
    (stroke (width 0) (type default) (color 0 0 0 0))
    (uuid d86d9078-2e4f-40de-857d-d4db0a09b0e7)
  )
  (wire (pts (xy 230.378 108.458) (xy 230.378 110.744))
    (stroke (width 0) (type default) (color 0 0 0 0))
    (uuid dd4d7abb-0cb2-42a7-b231-a84c72630f99)
  )
  (wire (pts (xy 68.58 60.96) (xy 63.5 60.96))
    (stroke (width 0) (type default) (color 0 0 0 0))
    (uuid e0b029dc-e2d0-4b8f-bdae-e975f7e2a552)
  )
  (wire (pts (xy 66.04 55.88) (xy 66.04 52.07))
    (stroke (width 0) (type default) (color 0 0 0 0))
    (uuid e112da71-e2a7-4696-9b73-ae0ec6c7f595)
  )
  (wire (pts (xy 216.916 95.758) (xy 220.218 95.758))
    (stroke (width 0) (type default) (color 0 0 0 0))
    (uuid e1e219db-74df-4856-b585-be868a0aacc2)
  )
  (wire (pts (xy 215.646 88.138) (xy 220.218 88.138))
    (stroke (width 0) (type default) (color 0 0 0 0))
    (uuid e8a4c6df-3797-47ec-8d13-1b338e0b9d17)
  )
  (wire (pts (xy 215.646 35.306) (xy 220.218 35.306))
    (stroke (width 0) (type default) (color 0 0 0 0))
    (uuid f0d67919-dfef-4106-b0cc-7dd1b371cfb8)
  )
  (wire (pts (xy 240.538 80.518) (xy 246.38 80.518))
    (stroke (width 0) (type default) (color 0 0 0 0))
    (uuid f65690f1-0801-499f-a514-7126fca14733)
  )
  (wire (pts (xy 90.17 78.74) (xy 90.17 73.66))
    (stroke (width 0) (type default) (color 0 0 0 0))
    (uuid fca77f71-4b6a-4716-9a94-97baf507f92b)
  )
  (wire (pts (xy 80.01 52.07) (xy 94.234 52.07))
    (stroke (width 0) (type default) (color 0 0 0 0))
    (uuid fcb46d3e-a8a6-4073-a8d2-a3ffc869ec93)
  )

  (text "2x2" (at 111.252 20.066 0)
    (effects (font (size 2.54 2.54)) (justify left bottom))
    (uuid 8c1056bc-95f8-40ad-8d0f-9863a336330a)
  )

  (global_label "latch" (shape output) (at 216.154 40.386 180) (fields_autoplaced)
    (effects (font (size 1.27 1.27)) (justify right))
    (uuid 0031cd92-e88c-4d3c-a633-7ac0f8eeea5b)
    (property "Intersheet References" "${INTERSHEET_REFS}" (id 0) (at 208.9633 40.4654 0)
      (effects (font (size 1.27 1.27)) (justify right) hide)
    )
  )
  (global_label "bat+" (shape input) (at 171.704 85.852 270) (fields_autoplaced)
    (effects (font (size 1.27 1.27)) (justify right))
    (uuid 0bcc5acb-3486-482c-b2bb-c12fbe0829c8)
    (property "Intersheet References" "${INTERSHEET_REFS}" (id 0) (at 171.6246 92.7724 90)
      (effects (font (size 1.27 1.27)) (justify right) hide)
    )
  )
  (global_label "gnd" (shape input) (at 197.358 56.642 0) (fields_autoplaced)
    (effects (font (size 1.27 1.27)) (justify left))
    (uuid 0d5218bf-d2c9-421e-9e4f-4032a3460215)
    (property "Intersheet References" "${INTERSHEET_REFS}" (id 0) (at 203.2182 56.5626 0)
      (effects (font (size 1.27 1.27)) (justify left) hide)
    )
  )
  (global_label "r0" (shape output) (at 94.234 52.07 0) (fields_autoplaced)
    (effects (font (size 1.27 1.27)) (justify left))
    (uuid 0ff00960-9673-4f4a-8e02-feede2ee7d6e)
    (property "Intersheet References" "${INTERSHEET_REFS}" (id 0) (at 98.6428 51.9906 0)
      (effects (font (size 1.27 1.27)) (justify left) hide)
    )
  )
  (global_label "dout" (shape output) (at 215.646 27.686 180) (fields_autoplaced)
    (effects (font (size 1.27 1.27)) (justify right))
    (uuid 10c213f4-a923-4f47-a6cf-dc90ace05512)
    (property "Intersheet References" "${INTERSHEET_REFS}" (id 0) (at 209.06 27.6066 0)
      (effects (font (size 1.27 1.27)) (justify right) hide)
    )
  )
  (global_label "bat+" (shape input) (at 158.75 104.14 0) (fields_autoplaced)
    (effects (font (size 1.27 1.27)) (justify left))
    (uuid 1b6e2d09-36e8-43ab-85b9-b023b84cd76b)
    (property "Intersheet References" "${INTERSHEET_REFS}" (id 0) (at 165.6704 104.2194 0)
      (effects (font (size 1.27 1.27)) (justify left) hide)
    )
  )
  (global_label "ea" (shape bidirectional) (at 148.59 60.452 180) (fields_autoplaced)
    (effects (font (size 1.27 1.27)) (justify right))
    (uuid 227da1ac-9d64-4aca-8a41-a3e95375c59f)
    (property "Intersheet References" "${INTERSHEET_REFS}" (id 0) (at 143.9393 60.3726 0)
      (effects (font (size 1.27 1.27)) (justify right) hide)
    )
  )
  (global_label "bat-" (shape input) (at 144.78 114.554 0) (fields_autoplaced)
    (effects (font (size 1.27 1.27)) (justify left))
    (uuid 3163d098-ae14-4560-937b-b76c9e127f5d)
    (property "Intersheet References" "${INTERSHEET_REFS}" (id 0) (at 151.7004 114.6334 0)
      (effects (font (size 1.27 1.27)) (justify left) hide)
    )
  )
  (global_label "gnd" (shape output) (at 128.778 42.418 0) (fields_autoplaced)
    (effects (font (size 1.27 1.27)) (justify left))
    (uuid 337929ad-f7bc-474e-8554-012ada64364d)
    (property "Intersheet References" "${INTERSHEET_REFS}" (id 0) (at 134.6382 42.4974 0)
      (effects (font (size 1.27 1.27)) (justify left) hide)
    )
  )
  (global_label "gnd" (shape output) (at 237.998 20.828 0) (fields_autoplaced)
    (effects (font (size 1.27 1.27)) (justify left))
    (uuid 33f832be-206b-474b-9c64-0aeb662d1a35)
    (property "Intersheet References" "${INTERSHEET_REFS}" (id 0) (at 243.8582 20.9074 0)
      (effects (font (size 1.27 1.27)) (justify left) hide)
    )
  )
  (global_label "3v3" (shape output) (at 215.646 88.138 180) (fields_autoplaced)
    (effects (font (size 1.27 1.27)) (justify right))
    (uuid 35945f00-507e-4537-a1a5-af145026af6f)
    (property "Intersheet References" "${INTERSHEET_REFS}" (id 0) (at 209.8462 88.2174 0)
      (effects (font (size 1.27 1.27)) (justify right) hide)
    )
  )
  (global_label "scl" (shape bidirectional) (at 73.66 98.806 180) (fields_autoplaced)
    (effects (font (size 1.27 1.27)) (justify right))
    (uuid 37a605df-ce37-4427-8a63-afd31780e7bf)
    (property "Intersheet References" "${INTERSHEET_REFS}" (id 0) (at 68.465 98.7266 0)
      (effects (font (size 1.27 1.27)) (justify right) hide)
    )
  )
  (global_label "5v" (shape output) (at 128.778 37.338 0) (fields_autoplaced)
    (effects (font (size 1.27 1.27)) (justify left))
    (uuid 3959aba0-5ab5-4fa3-a75e-c545a9b1e8d3)
    (property "Intersheet References" "${INTERSHEET_REFS}" (id 0) (at 133.3682 37.2586 0)
      (effects (font (size 1.27 1.27)) (justify left) hide)
    )
  )
  (global_label "gnd" (shape output) (at 237.998 73.66 0) (fields_autoplaced)
    (effects (font (size 1.27 1.27)) (justify left))
    (uuid 3984ff1f-2769-4e1a-93ad-51694579da41)
    (property "Intersheet References" "${INTERSHEET_REFS}" (id 0) (at 243.8582 73.7394 0)
      (effects (font (size 1.27 1.27)) (justify left) hide)
    )
  )
  (global_label "r0" (shape output) (at 147.574 52.832 180) (fields_autoplaced)
    (effects (font (size 1.27 1.27)) (justify right))
    (uuid 3a1992ba-7c4d-4d30-92cb-17b796ea67d3)
    (property "Intersheet References" "${INTERSHEET_REFS}" (id 0) (at 143.1652 52.9114 0)
      (effects (font (size 1.27 1.27)) (justify right) hide)
    )
  )
  (global_label "3v3" (shape output) (at 197.866 60.452 0) (fields_autoplaced)
    (effects (font (size 1.27 1.27)) (justify left))
    (uuid 3c915605-dca4-4719-8deb-fb6eef810069)
    (property "Intersheet References" "${INTERSHEET_REFS}" (id 0) (at 203.6658 60.3726 0)
      (effects (font (size 1.27 1.27)) (justify left) hide)
    )
  )
  (global_label "latch" (shape output) (at 198.12 75.692 0) (fields_autoplaced)
    (effects (font (size 1.27 1.27)) (justify left))
    (uuid 3cc37e91-63ea-451d-a48f-1948f8bcf49b)
    (property "Intersheet References" "${INTERSHEET_REFS}" (id 0) (at 205.3107 75.6126 0)
      (effects (font (size 1.27 1.27)) (justify left) hide)
    )
  )
  (global_label "dout" (shape output) (at 198.12 64.262 0) (fields_autoplaced)
    (effects (font (size 1.27 1.27)) (justify left))
    (uuid 4af417ec-9e09-4937-b2be-ce7dc4dba9ac)
    (property "Intersheet References" "${INTERSHEET_REFS}" (id 0) (at 204.706 64.1826 0)
      (effects (font (size 1.27 1.27)) (justify left) hide)
    )
  )
  (global_label "c0" (shape input) (at 245.11 27.686 0) (fields_autoplaced)
    (effects (font (size 1.27 1.27)) (justify left))
    (uuid 6505004c-b445-467c-8e18-fcf719e221cf)
    (property "Intersheet References" "${INTERSHEET_REFS}" (id 0) (at 249.8212 27.6066 0)
      (effects (font (size 1.27 1.27)) (justify left) hide)
    )
  )
  (global_label "scl" (shape bidirectional) (at 148.844 71.882 180) (fields_autoplaced)
    (effects (font (size 1.27 1.27)) (justify right))
    (uuid 68966e84-1906-41e7-b693-033870789e08)
    (property "Intersheet References" "${INTERSHEET_REFS}" (id 0) (at 143.649 71.8026 0)
      (effects (font (size 1.27 1.27)) (justify right) hide)
    )
  )
  (global_label "sda" (shape bidirectional) (at 73.66 94.996 180) (fields_autoplaced)
    (effects (font (size 1.27 1.27)) (justify right))
    (uuid 6a613e60-2f3f-49a8-9a7e-02a5a4ab081c)
    (property "Intersheet References" "${INTERSHEET_REFS}" (id 0) (at 67.9207 94.9166 0)
      (effects (font (size 1.27 1.27)) (justify right) hide)
    )
  )
  (global_label "3v3" (shape input) (at 230.378 20.574 90) (fields_autoplaced)
    (effects (font (size 1.27 1.27)) (justify left))
    (uuid 6b79dba1-2f6e-4416-8288-9c3f340c23e9)
    (property "Intersheet References" "${INTERSHEET_REFS}" (id 0) (at 230.2986 14.7742 90)
      (effects (font (size 1.27 1.27)) (justify left) hide)
    )
  )
  (global_label "r1" (shape output) (at 93.98 69.85 0) (fields_autoplaced)
    (effects (font (size 1.27 1.27)) (justify left))
    (uuid 6f7c067d-6f16-45d8-ab09-c1f3836a9803)
    (property "Intersheet References" "${INTERSHEET_REFS}" (id 0) (at 98.3888 69.7706 0)
      (effects (font (size 1.27 1.27)) (justify left) hide)
    )
  )
  (global_label "gnd" (shape bidirectional) (at 85.09 38.1 90) (fields_autoplaced)
    (effects (font (size 1.27 1.27)) (justify left))
    (uuid 716aeabe-f3b0-4e89-a80e-93a0aadf60fa)
    (property "Intersheet References" "${INTERSHEET_REFS}" (id 0) (at 85.0106 32.2398 90)
      (effects (font (size 1.27 1.27)) (justify left) hide)
    )
  )
  (global_label "gnd" (shape bidirectional) (at 216.916 42.926 180) (fields_autoplaced)
    (effects (font (size 1.27 1.27)) (justify right))
    (uuid 73402f82-bfaa-45f0-a7df-b77d376febc7)
    (property "Intersheet References" "${INTERSHEET_REFS}" (id 0) (at 211.0558 43.0054 0)
      (effects (font (size 1.27 1.27)) (justify right) hide)
    )
  )
  (global_label "clock" (shape output) (at 215.646 32.766 180) (fields_autoplaced)
    (effects (font (size 1.27 1.27)) (justify right))
    (uuid 74e58a4f-fb8c-40b8-be81-00a549fda4ed)
    (property "Intersheet References" "${INTERSHEET_REFS}" (id 0) (at 208.2134 32.8454 0)
      (effects (font (size 1.27 1.27)) (justify right) hide)
    )
  )
  (global_label "r1" (shape output) (at 148.59 64.262 180) (fields_autoplaced)
    (effects (font (size 1.27 1.27)) (justify right))
    (uuid 819dfd49-d565-49a6-892d-511fbf3973dc)
    (property "Intersheet References" "${INTERSHEET_REFS}" (id 0) (at 144.1812 64.3414 0)
      (effects (font (size 1.27 1.27)) (justify right) hide)
    )
  )
  (global_label "c0" (shape input) (at 63.5 43.18 90) (fields_autoplaced)
    (effects (font (size 1.27 1.27)) (justify left))
    (uuid 83a251ed-f315-4cce-ac55-0777e6e23fba)
    (property "Intersheet References" "${INTERSHEET_REFS}" (id 0) (at 63.4206 38.5577 90)
      (effects (font (size 1.27 1.27)) (justify left) hide)
    )
  )
  (global_label "led" (shape output) (at 128.778 39.878 0) (fields_autoplaced)
    (effects (font (size 1.27 1.27)) (justify left))
    (uuid 95b3bb51-db02-44e6-b32a-10e629360a23)
    (property "Intersheet References" "${INTERSHEET_REFS}" (id 0) (at 134.094 39.7986 0)
      (effects (font (size 1.27 1.27)) (justify left) hide)
    )
  )
  (global_label "eb" (shape bidirectional) (at 147.574 56.642 180) (fields_autoplaced)
    (effects (font (size 1.27 1.27)) (justify right))
    (uuid 97724a5c-8330-43e5-99bb-45f614db5930)
    (property "Intersheet References" "${INTERSHEET_REFS}" (id 0) (at 142.9233 56.5626 0)
      (effects (font (size 1.27 1.27)) (justify right) hide)
    )
  )
  (global_label "gnd" (shape output) (at 230.378 57.912 270) (fields_autoplaced)
    (effects (font (size 1.27 1.27)) (justify right))
    (uuid 9f101c19-7bf7-4db0-83ad-6c66e644d47a)
    (property "Intersheet References" "${INTERSHEET_REFS}" (id 0) (at 230.2986 63.7722 90)
      (effects (font (size 1.27 1.27)) (justify right) hide)
    )
  )
  (global_label "3v3" (shape output) (at 215.646 35.306 180) (fields_autoplaced)
    (effects (font (size 1.27 1.27)) (justify right))
    (uuid a74d594a-7e6d-4856-8f1f-240e8c84d74a)
    (property "Intersheet References" "${INTERSHEET_REFS}" (id 0) (at 209.8462 35.3854 0)
      (effects (font (size 1.27 1.27)) (justify right) hide)
    )
  )
  (global_label "gnd" (shape output) (at 230.378 110.744 270) (fields_autoplaced)
    (effects (font (size 1.27 1.27)) (justify right))
    (uuid a78cc776-4eb9-4c95-ad3c-c6b9191ddcee)
    (property "Intersheet References" "${INTERSHEET_REFS}" (id 0) (at 230.2986 116.6042 90)
      (effects (font (size 1.27 1.27)) (justify right) hide)
    )
  )
  (global_label "latch" (shape output) (at 216.154 93.218 180) (fields_autoplaced)
    (effects (font (size 1.27 1.27)) (justify right))
    (uuid afe03b78-c178-457b-be16-f423ef1f611a)
    (property "Intersheet References" "${INTERSHEET_REFS}" (id 0) (at 208.9633 93.2974 0)
      (effects (font (size 1.27 1.27)) (justify right) hide)
    )
  )
  (global_label "c1" (shape input) (at 246.38 80.518 0) (fields_autoplaced)
    (effects (font (size 1.27 1.27)) (justify left))
    (uuid b0772b94-0021-40b1-96b0-b376a2b4613f)
    (property "Intersheet References" "${INTERSHEET_REFS}" (id 0) (at 251.0023 80.4386 0)
      (effects (font (size 1.27 1.27)) (justify left) hide)
    )
  )
  (global_label "eb" (shape bidirectional) (at 82.55 38.1 90) (fields_autoplaced)
    (effects (font (size 1.27 1.27)) (justify left))
    (uuid b32d16a1-13cd-4224-b898-df9abf4a1f96)
    (property "Intersheet References" "${INTERSHEET_REFS}" (id 0) (at 82.4706 33.4493 90)
      (effects (font (size 1.27 1.27)) (justify left) hide)
    )
  )
  (global_label "clock" (shape output) (at 197.866 71.882 0) (fields_autoplaced)
    (effects (font (size 1.27 1.27)) (justify left))
    (uuid b6b22610-3d31-4804-bfff-393e0732494e)
    (property "Intersheet References" "${INTERSHEET_REFS}" (id 0) (at 205.2986 71.8026 0)
      (effects (font (size 1.27 1.27)) (justify left) hide)
    )
  )
  (global_label "gnd" (shape input) (at 136.652 111.76 180) (fields_autoplaced)
    (effects (font (size 1.27 1.27)) (justify right))
    (uuid b7701dff-391a-4922-b790-817e55d02f15)
    (property "Intersheet References" "${INTERSHEET_REFS}" (id 0) (at 130.7918 111.8394 0)
      (effects (font (size 1.27 1.27)) (justify right) hide)
    )
  )
  (global_label "c1" (shape input) (at 77.47 43.18 90) (fields_autoplaced)
    (effects (font (size 1.27 1.27)) (justify left))
    (uuid c7b12ae0-6edb-4c1c-b9cb-ee419a08ba0a)
    (property "Intersheet References" "${INTERSHEET_REFS}" (id 0) (at 77.3906 38.5577 90)
      (effects (font (size 1.27 1.27)) (justify left) hide)
    )
  )
  (global_label "3v3" (shape input) (at 230.378 73.406 90) (fields_autoplaced)
    (effects (font (size 1.27 1.27)) (justify left))
    (uuid cb2aa2b6-2e4f-4b94-aa42-ed4de54a9963)
    (property "Intersheet References" "${INTERSHEET_REFS}" (id 0) (at 230.2986 67.6062 90)
      (effects (font (size 1.27 1.27)) (justify left) hide)
    )
  )
  (global_label "3v3" (shape output) (at 73.66 102.616 180) (fields_autoplaced)
    (effects (font (size 1.27 1.27)) (justify right))
    (uuid cd5bfaa0-2873-48a6-b51e-a2db24b4f7a5)
    (property "Intersheet References" "${INTERSHEET_REFS}" (id 0) (at 67.8602 102.6954 0)
      (effects (font (size 1.27 1.27)) (justify right) hide)
    )
  )
  (global_label "gnd" (shape output) (at 216.916 95.758 180) (fields_autoplaced)
    (effects (font (size 1.27 1.27)) (justify right))
    (uuid d004392e-ce2a-4737-8814-fbf26ed0b5c6)
    (property "Intersheet References" "${INTERSHEET_REFS}" (id 0) (at 211.0558 95.6786 0)
      (effects (font (size 1.27 1.27)) (justify right) hide)
    )
  )
  (global_label "sda" (shape bidirectional) (at 148.59 68.072 180) (fields_autoplaced)
    (effects (font (size 1.27 1.27)) (justify right))
    (uuid d9d42b61-0aaa-4de7-b615-91a3f15ce496)
    (property "Intersheet References" "${INTERSHEET_REFS}" (id 0) (at 142.8507 67.9926 0)
      (effects (font (size 1.27 1.27)) (justify right) hide)
    )
  )
  (global_label "ea" (shape bidirectional) (at 87.63 38.1 90) (fields_autoplaced)
    (effects (font (size 1.27 1.27)) (justify left))
    (uuid e0e1c6d2-f00f-4062-a218-fb5d137a9755)
    (property "Intersheet References" "${INTERSHEET_REFS}" (id 0) (at 87.5506 33.4493 90)
      (effects (font (size 1.27 1.27)) (justify left) hide)
    )
  )
  (global_label "gnd" (shape bidirectional) (at 73.66 106.426 180) (fields_autoplaced)
    (effects (font (size 1.27 1.27)) (justify right))
    (uuid ed68b291-825e-4009-9915-59eaff2aafa4)
    (property "Intersheet References" "${INTERSHEET_REFS}" (id 0) (at 67.7998 106.5054 0)
      (effects (font (size 1.27 1.27)) (justify right) hide)
    )
  )
  (global_label "led" (shape output) (at 152.654 75.692 180) (fields_autoplaced)
    (effects (font (size 1.27 1.27)) (justify right))
    (uuid f17e2f3c-1d3f-43f6-9ed9-1ed9055bab75)
    (property "Intersheet References" "${INTERSHEET_REFS}" (id 0) (at 147.338 75.7714 0)
      (effects (font (size 1.27 1.27)) (justify right) hide)
    )
  )
  (global_label "5v" (shape output) (at 197.866 52.832 0) (fields_autoplaced)
    (effects (font (size 1.27 1.27)) (justify left))
    (uuid f3cbd11d-0e5a-4976-9ff1-8de73b41406c)
    (property "Intersheet References" "${INTERSHEET_REFS}" (id 0) (at 202.4562 52.7526 0)
      (effects (font (size 1.27 1.27)) (justify left) hide)
    )
  )
  (global_label "clock" (shape output) (at 215.646 85.598 180) (fields_autoplaced)
    (effects (font (size 1.27 1.27)) (justify right))
    (uuid f76d1288-4761-4551-b6b5-8a0c13b8183e)
    (property "Intersheet References" "${INTERSHEET_REFS}" (id 0) (at 208.2134 85.6774 0)
      (effects (font (size 1.27 1.27)) (justify right) hide)
    )
  )
  (global_label "bat-" (shape input) (at 176.784 85.852 270) (fields_autoplaced)
    (effects (font (size 1.27 1.27)) (justify right))
    (uuid f88075e2-fb1e-4009-a7bb-cd2f12a14dfe)
    (property "Intersheet References" "${INTERSHEET_REFS}" (id 0) (at 176.7046 92.7724 90)
      (effects (font (size 1.27 1.27)) (justify right) hide)
    )
  )

  (symbol (lib_id "Device:C") (at 234.188 73.66 90) (unit 1)
    (in_bom yes) (on_board yes) (fields_autoplaced)
    (uuid 0437097b-c1bf-4120-9aa8-e6158982a195)
    (property "Reference" "C2" (id 0) (at 234.188 66.04 90))
    (property "Value" "C" (id 1) (at 234.188 68.58 90))
    (property "Footprint" "m65:C-dual" (id 2) (at 237.998 72.6948 0)
      (effects (font (size 1.27 1.27)) hide)
    )
    (property "Datasheet" "~" (id 3) (at 234.188 73.66 0)
      (effects (font (size 1.27 1.27)) hide)
    )
    (pin "1" (uuid 63da8d2c-0076-4eef-9c10-a7e25c009719))
    (pin "2" (uuid a9211817-c443-45e2-8c5d-8671c33d21bc))
  )

  (symbol (lib_id "Switch:SW_Push") (at 71.12 73.66 0) (unit 1)
    (in_bom yes) (on_board yes)
    (uuid 24c591f4-3b69-4861-a8ef-642365f324fa)
    (property "Reference" "SW3" (id 0) (at 71.12 68.7578 0))
    (property "Value" "SW3" (id 1) (at 71.12 68.7324 0))
    (property "Footprint" "m65:CherryMX_ChocV2_1u" (id 2) (at 71.12 68.58 0)
      (effects (font (size 1.27 1.27)) hide)
    )
    (property "Datasheet" "~" (id 3) (at 71.12 68.58 0)
      (effects (font (size 1.27 1.27)) hide)
    )
    (pin "1" (uuid 30cbc707-df33-4aec-8efa-cf9ffe672a17))
    (pin "2" (uuid 1a235a16-e5bb-4cd2-9a13-545b8f34613c))
  )

  (symbol (lib_id "Mechanical:MountingHole") (at 34.29 29.972 0) (unit 1)
    (in_bom yes) (on_board yes) (fields_autoplaced)
    (uuid 25eb12ca-7e36-47e4-9f7a-385677b18469)
    (property "Reference" "H4" (id 0) (at 36.83 28.7019 0)
      (effects (font (size 1.27 1.27)) (justify left))
    )
    (property "Value" "MountingHole" (id 1) (at 36.83 31.2419 0)
      (effects (font (size 1.27 1.27)) (justify left))
    )
    (property "Footprint" "m65:LegoHole_12x8u_4875" (id 2) (at 34.29 29.972 0)
      (effects (font (size 1.27 1.27)) hide)
    )
    (property "Datasheet" "~" (id 3) (at 34.29 29.972 0)
      (effects (font (size 1.27 1.27)) hide)
    )
  )

  (symbol (lib_id "Connector:Conn_01x02_Female") (at 144.272 109.22 0) (unit 1)
    (in_bom yes) (on_board yes) (fields_autoplaced)
    (uuid 298d8d1c-1d87-4051-aa18-27ac6af1515c)
    (property "Reference" "J1" (id 0) (at 145.542 109.2199 0)
      (effects (font (size 1.27 1.27)) (justify left))
    )
    (property "Value" "battery" (id 1) (at 145.542 111.7599 0)
      (effects (font (size 1.27 1.27)) (justify left))
    )
    (property "Footprint" "m65:battery connector - no surface" (id 2) (at 144.272 109.22 0)
      (effects (font (size 1.27 1.27)) hide)
    )
    (property "Datasheet" "~" (id 3) (at 144.272 109.22 0)
      (effects (font (size 1.27 1.27)) hide)
    )
    (pin "1" (uuid a12e91c0-66f8-4a1d-a989-9e1a70431b99))
    (pin "2" (uuid ceae033b-6225-4fa6-a34d-e717a52a688e))
  )

  (symbol (lib_id "power:-BATT") (at 139.192 114.554 180) (unit 1)
    (in_bom yes) (on_board yes) (fields_autoplaced)
    (uuid 2d5edc10-6e97-4cde-910c-e6b17248ef0a)
    (property "Reference" "#PWR02" (id 0) (at 139.192 110.744 0)
      (effects (font (size 1.27 1.27)) hide)
    )
    (property "Value" "-BATT" (id 1) (at 139.192 119.888 0))
    (property "Footprint" "" (id 2) (at 139.192 114.554 0)
      (effects (font (size 1.27 1.27)) hide)
    )
    (property "Datasheet" "" (id 3) (at 139.192 114.554 0)
      (effects (font (size 1.27 1.27)) hide)
    )
    (pin "1" (uuid 177d6993-bce7-4a8e-b225-ba91ca1f31a4))
  )

  (symbol (lib_id "74xx:74HC595") (at 230.378 37.846 0) (unit 1)
    (in_bom yes) (on_board yes) (fields_autoplaced)
    (uuid 48aa9df2-1a8e-495f-88dd-cfc48e10b841)
    (property "Reference" "U2" (id 0) (at 232.3974 20.32 0)
      (effects (font (size 1.27 1.27)) (justify left))
    )
    (property "Value" "74HC595" (id 1) (at 232.3974 22.86 0)
      (effects (font (size 1.27 1.27)) (justify left))
    )
    (property "Footprint" "m65:74HC595-sop16" (id 2) (at 230.378 37.846 0)
      (effects (font (size 1.27 1.27)) hide)
    )
    (property "Datasheet" "http://www.ti.com/lit/ds/symlink/sn74hc595.pdf" (id 3) (at 230.378 37.846 0)
      (effects (font (size 1.27 1.27)) hide)
    )
    (pin "1" (uuid a4ac0d22-efaf-48ce-bdc0-eaa10b01189c))
    (pin "10" (uuid 85fe3fd4-1690-40fc-aeb5-52bb7c368e0b))
    (pin "11" (uuid 172849ae-d5a5-44f5-a213-18fe6bd18bd6))
    (pin "12" (uuid e9a630e6-cd2c-4a03-9455-1701e3bd558d))
    (pin "13" (uuid 3975bb7b-a8c2-4c2d-aec0-345c18641317))
    (pin "14" (uuid c94ea2aa-50ee-4239-8cbe-cd95dc7fdc78))
    (pin "15" (uuid c06aa9c6-5a4b-429a-a86e-dd37ba064d5e))
    (pin "16" (uuid 0e2e81d0-92ec-4171-b8f9-fc13b757b1f7))
    (pin "2" (uuid bf4dbf6f-e3bb-4eb3-a103-cceba1045592))
    (pin "3" (uuid 7e9a34f3-fc82-4e51-8018-f2af7d7f5dd2))
    (pin "4" (uuid 6a9bbc7a-ceca-4823-b92b-4901c1e658e6))
    (pin "5" (uuid becd60b7-0d17-4ce9-9d6b-0cd2df8b474c))
    (pin "6" (uuid 01f64811-2682-4bd9-ab07-6308c2e62f01))
    (pin "7" (uuid 02e14075-8590-4358-874f-d141b6fa07e2))
    (pin "8" (uuid af381492-9160-409f-989a-fdfd417e2095))
    (pin "9" (uuid 028f2f0c-2c5f-49ed-8037-b184431bc037))
  )

  (symbol (lib_id "diode:1N4148") (at 86.36 78.74 180) (unit 1)
    (in_bom yes) (on_board yes)
    (uuid 4d0eda3c-3542-4283-ba1d-0c7ebeca50b9)
    (property "Reference" "D4" (id 0) (at 86.36 81.915 0))
    (property "Value" "1N4148" (id 1) (at 86.36 76.2 0))
    (property "Footprint" "m65:diode_v" (id 2) (at 86.36 78.74 0)
      (effects (font (size 1.27 1.27)) hide)
    )
    (property "Datasheet" "~" (id 3) (at 86.36 78.74 0)
      (effects (font (size 1.27 1.27)) hide)
    )
    (pin "1" (uuid ca1c7621-49df-47d8-bc80-6fcdf384743a))
    (pin "2" (uuid 625db591-04b8-4541-aca1-d4e0d5021bf2))
  )

  (symbol (lib_id "Switch:SW_Push") (at 71.12 55.88 0) (unit 1)
    (in_bom yes) (on_board yes)
    (uuid 57492b58-1bdc-437b-8b93-2a0d5e1a4bff)
    (property "Reference" "SW1" (id 0) (at 71.12 50.9778 0))
    (property "Value" "sw1" (id 1) (at 71.12 50.9524 0)
      (effects (font (size 1.27 1.27)) hide)
    )
    (property "Footprint" "m65:CherryMX_ChocV2_1u" (id 2) (at 71.12 50.8 0)
      (effects (font (size 1.27 1.27)) hide)
    )
    (property "Datasheet" "~" (id 3) (at 71.12 50.8 0)
      (effects (font (size 1.27 1.27)) hide)
    )
    (pin "1" (uuid 73a5b4d2-2ee5-40a6-91de-90a19115748c))
    (pin "2" (uuid aec98cab-0315-45f1-90b8-6e9a4dfe02cc))
  )

  (symbol (lib_id "diode:1N4148") (at 72.39 60.96 180) (unit 1)
    (in_bom yes) (on_board yes)
    (uuid 5a997121-762f-48ff-968e-060de05f72f7)
    (property "Reference" "D1" (id 0) (at 72.39 64.135 0))
    (property "Value" "1N4148" (id 1) (at 72.39 58.42 0))
    (property "Footprint" "m65:diode_v" (id 2) (at 72.39 60.96 0)
      (effects (font (size 1.27 1.27)) hide)
    )
    (property "Datasheet" "~" (id 3) (at 72.39 60.96 0)
      (effects (font (size 1.27 1.27)) hide)
    )
    (pin "1" (uuid bccd87bb-3596-4d1b-b480-7136728172a3))
    (pin "2" (uuid b92c317e-b513-4102-855b-fcf02d45b7b7))
  )

  (symbol (lib_id "diode:1N4148") (at 72.39 78.74 180) (unit 1)
    (in_bom yes) (on_board yes)
    (uuid 885a2da2-58d4-442c-92b4-ace551127bfd)
    (property "Reference" "D3" (id 0) (at 72.39 81.915 0))
    (property "Value" "1N4148" (id 1) (at 72.39 76.2 0))
    (property "Footprint" "m65:diode_v" (id 2) (at 72.39 78.74 0)
      (effects (font (size 1.27 1.27)) hide)
    )
    (property "Datasheet" "~" (id 3) (at 72.39 78.74 0)
      (effects (font (size 1.27 1.27)) hide)
    )
    (pin "1" (uuid a2102fb7-0c13-4029-9a5b-d6f8cd4cbaf0))
    (pin "2" (uuid d8b44fbb-35c9-4623-93d7-9d926d8cdb39))
  )

  (symbol (lib_id "power:+BATT") (at 136.652 106.68 0) (unit 1)
    (in_bom yes) (on_board yes) (fields_autoplaced)
    (uuid 9d4ea478-3012-4754-9ec8-08263a9664b1)
    (property "Reference" "#PWR01" (id 0) (at 136.652 110.49 0)
      (effects (font (size 1.27 1.27)) hide)
    )
    (property "Value" "+BATT" (id 1) (at 136.652 101.854 0))
    (property "Footprint" "" (id 2) (at 136.652 106.68 0)
      (effects (font (size 1.27 1.27)) hide)
    )
    (property "Datasheet" "" (id 3) (at 136.652 106.68 0)
      (effects (font (size 1.27 1.27)) hide)
    )
    (pin "1" (uuid e49c1a7d-68d9-4ac2-a70b-2524845393f3))
  )

  (symbol (lib_id "switch_encoder_mx:RotaryEncoder_Switch_mx") (at 85.09 45.72 270) (unit 1)
    (in_bom yes) (on_board yes) (fields_autoplaced)
    (uuid ac0ae675-f703-461a-b316-ce70674a06ee)
    (property "Reference" "SW2" (id 0) (at 91.44 44.4499 90)
      (effects (font (size 1.27 1.27)) (justify left))
    )
    (property "Value" "mx-enc" (id 1) (at 91.44 46.9899 90)
      (effects (font (size 1.27 1.27)) (justify left))
    )
    (property "Footprint" "m65:CherryMX_ChocV2_enc_1u" (id 2) (at 88.9 49.784 0)
      (effects (font (size 1.27 1.27)) hide)
    )
    (property "Datasheet" "~" (id 3) (at 85.09 52.324 0)
      (effects (font (size 1.27 1.27)) hide)
    )
    (pin "1" (uuid d93263ae-9724-4176-8e3d-5fc8170f902d))
    (pin "2" (uuid 0d488836-cd97-41d0-a54d-daf47193bf75))
    (pin "A" (uuid 1f8359be-a61d-466d-a3be-69bbd4dd4966))
    (pin "B" (uuid 6617079c-053c-40f1-b267-5942904bf4fc))
    (pin "C" (uuid 12774c01-786e-4b44-9e60-b8a70383dcde))
  )

  (symbol (lib_id "Connector:Conn_01x03_Male") (at 121.412 39.878 0) (unit 1)
    (in_bom yes) (on_board yes) (fields_autoplaced)
    (uuid bb101739-91f1-43a1-97dd-6e0eca2f8f61)
    (property "Reference" "J2" (id 0) (at 122.047 32.004 0))
    (property "Value" "rgb" (id 1) (at 122.047 34.544 0))
    (property "Footprint" "m65:connector-rgb" (id 2) (at 121.412 39.878 0)
      (effects (font (size 1.27 1.27)) hide)
    )
    (property "Datasheet" "~" (id 3) (at 121.412 39.878 0)
      (effects (font (size 1.27 1.27)) hide)
    )
    (pin "1" (uuid ccb64331-a6b9-47e8-abe7-30803ab42af9))
    (pin "2" (uuid 33a6550e-e5c0-4c7b-87cb-38ae677e0dc8))
    (pin "3" (uuid 8f62c1ba-710e-455f-a863-0161fdbf7f02))
  )

  (symbol (lib_id "Switch:SW_Push") (at 85.09 73.66 0) (unit 1)
    (in_bom yes) (on_board yes)
    (uuid be762cce-3e1d-4e49-a5cf-9adfff0167c8)
    (property "Reference" "SW4" (id 0) (at 85.09 68.7578 0))
    (property "Value" "SW4" (id 1) (at 85.09 68.7324 0))
    (property "Footprint" "m65:CherryMX_ChocV2_1u" (id 2) (at 85.09 68.58 0)
      (effects (font (size 1.27 1.27)) hide)
    )
    (property "Datasheet" "~" (id 3) (at 85.09 68.58 0)
      (effects (font (size 1.27 1.27)) hide)
    )
    (pin "1" (uuid a69914ed-3e82-42c6-a4d1-9a748bcec0bf))
    (pin "2" (uuid b029d3b3-e3c5-4e74-aad2-71cc75d28a8a))
  )

  (symbol (lib_id "Device:C") (at 234.188 20.828 90) (unit 1)
    (in_bom yes) (on_board yes) (fields_autoplaced)
    (uuid c5b6a456-9eab-49ed-ae80-d7c7944fa956)
    (property "Reference" "C1" (id 0) (at 234.188 13.208 90))
    (property "Value" "C" (id 1) (at 234.188 15.748 90))
    (property "Footprint" "m65:C-dual" (id 2) (at 237.998 19.8628 0)
      (effects (font (size 1.27 1.27)) hide)
    )
    (property "Datasheet" "~" (id 3) (at 234.188 20.828 0)
      (effects (font (size 1.27 1.27)) hide)
    )
    (pin "1" (uuid 826b0a63-b1d5-47c6-84a3-c2217ca78eec))
    (pin "2" (uuid 582d87da-56ff-4224-93e1-b26ebcb37365))
  )

  (symbol (lib_id "Switch:SW_SPDT") (at 151.892 106.68 0) (unit 1)
    (in_bom yes) (on_board yes)
    (uuid caf34011-4e0f-4b66-a95c-d1276b7950d9)
    (property "Reference" "SW5" (id 0) (at 154.432 99.06 0))
    (property "Value" "on/off" (id 1) (at 154.432 101.6 0))
    (property "Footprint" "m65:switch_slide" (id 2) (at 151.892 106.68 0)
      (effects (font (size 1.27 1.27)) hide)
    )
    (property "Datasheet" "~" (id 3) (at 151.892 106.68 0)
      (effects (font (size 1.27 1.27)) hide)
    )
    (pin "1" (uuid 057b71a6-2a35-4671-9717-fceec7ef64c7))
    (pin "2" (uuid cc1b5270-6c5f-4a3e-bbcc-c7e4f82d3adb))
    (pin "3" (uuid 0d4b7674-64a1-4b10-952d-823e81a6f660))
  )

  (symbol (lib_id "Seeeduino XIAO_ble:SeeeduinoXIAOBLE") (at 174.244 64.262 0) (unit 1)
    (in_bom yes) (on_board yes)
    (uuid d6d5d2e4-5aae-401b-aeb4-5231e8eea113)
    (property "Reference" "U1" (id 0) (at 168.91 52.832 0)
      (effects (font (size 1.27 1.27)) (justify left))
    )
    (property "Value" "SeeeduinoXIAOBLE" (id 1) (at 168.91 55.372 0)
      (effects (font (size 1.27 1.27)) (justify left))
    )
    (property "Footprint" "m65:xiao-ble-tht-new" (id 2) (at 165.354 59.182 0)
      (effects (font (size 1.27 1.27)) hide)
    )
    (property "Datasheet" "" (id 3) (at 165.354 59.182 0)
      (effects (font (size 1.27 1.27)) hide)
    )
    (pin "1" (uuid d52d48bb-6482-49ce-b26e-1b6271f03c07))
    (pin "10" (uuid 293e9b6e-9fcc-4852-82b2-604e3aaf606b))
    (pin "11" (uuid 047be8ef-4ea5-4d3a-a932-8ec554a19c93))
    (pin "12" (uuid 04e96f6f-f469-4ca0-b76a-e37e2f21747a))
    (pin "13" (uuid 2ca92283-883f-41e1-bff4-e17372a4598a))
    (pin "14" (uuid 4a41a25f-2b30-4718-b059-f244f3db3078))
    (pin "15" (uuid 1792ac23-62d7-455d-b7ae-8867a27c7c18))
    (pin "16" (uuid d311dec7-bc2f-48d1-84c6-425b6422fae1))
    (pin "17" (uuid bc4fb029-3600-4559-90b0-553df3dd46c9))
    (pin "18" (uuid 86617578-dfaa-4302-a85d-d3a0be18b6ea))
    (pin "19" (uuid 81574b66-0eda-4b49-b10c-bdbfc293f604))
    (pin "2" (uuid fc82985b-35fa-457c-84fa-4235f81b60fc))
    (pin "20" (uuid 0b83753c-479c-407e-8927-6a8f9d08215b))
    (pin "21" (uuid c1cfa6b2-10cc-4b67-a230-c8a92ed96e87))
    (pin "22" (uuid 53bd88c2-2974-4da7-a9f8-c84e48f78171))
    (pin "3" (uuid bc62f482-42fa-4a9a-8841-f43eea64aed1))
    (pin "4" (uuid 9864243e-fdf9-4cd1-b8df-774f72ec2a6d))
    (pin "5" (uuid 3b865e96-b662-473f-968f-682a620ebf12))
    (pin "6" (uuid ea17a20b-0ba5-45c3-b530-f75546f1e12b))
    (pin "7" (uuid 88754da6-544e-4950-bca8-3c16bf1515c4))
    (pin "8" (uuid 58da3fea-455e-4436-9cef-5f411ea6db31))
    (pin "9" (uuid a1a96747-fe49-4861-b466-2112e7df49fa))
  )

  (symbol (lib_id "74xx:74HC595") (at 230.378 90.678 0) (unit 1)
    (in_bom yes) (on_board yes)
    (uuid e68e89c0-3cc1-4d02-8b51-fa526d17bb54)
    (property "Reference" "U3" (id 0) (at 232.1434 73.152 0)
      (effects (font (size 1.27 1.27)) (justify left))
    )
    (property "Value" "74HC595" (id 1) (at 232.3974 75.692 0)
      (effects (font (size 1.27 1.27)) (justify left))
    )
    (property "Footprint" "m65:74HC595-sop16" (id 2) (at 230.378 90.678 0)
      (effects (font (size 1.27 1.27)) hide)
    )
    (property "Datasheet" "http://www.ti.com/lit/ds/symlink/sn74hc595.pdf" (id 3) (at 230.378 90.678 0)
      (effects (font (size 1.27 1.27)) hide)
    )
    (pin "1" (uuid c20e6d02-589c-4e33-b10b-d43962eef99c))
    (pin "10" (uuid cc0f47b6-5cf1-4ca4-85d7-e435255700cb))
    (pin "11" (uuid a9cdda59-1346-4e7c-9ceb-dd0abab468ff))
    (pin "12" (uuid 4d6b924b-6d0d-4f5f-9747-0c2a2e423ae0))
    (pin "13" (uuid 1c07d521-84e3-4ebc-8a99-01bbafbb63a9))
    (pin "14" (uuid 6f86b7ee-6dd4-434e-b411-ee57efd8b155))
    (pin "15" (uuid 0f42336a-0eeb-4fb6-b5f9-0c91321571ec))
    (pin "16" (uuid 4385dc57-64ce-4aae-8b00-dacc63869e7d))
    (pin "2" (uuid ddf290b9-c35f-4c4f-9f87-bd8c0af3188d))
    (pin "3" (uuid a7f999fa-8dab-41f1-b61f-85d25ee4ad26))
    (pin "4" (uuid 4041b204-8637-40a5-a468-ec63990d6fac))
    (pin "5" (uuid b42cf675-b4ac-4092-a8ce-fca062b4e7f1))
    (pin "6" (uuid 16c38f8e-e1b2-4eba-b445-68991b641270))
    (pin "7" (uuid f1d28216-6886-4ad7-bcf2-ce481f7bad81))
    (pin "8" (uuid eb37e4f9-1189-4b53-831e-ece24f9114e2))
    (pin "9" (uuid 0129175c-5c36-4f79-92e1-bc16d61ef389))
  )

  (symbol (lib_id "diode:1N4148") (at 86.36 60.96 180) (unit 1)
    (in_bom yes) (on_board yes)
    (uuid f8a82feb-eea8-4251-a8d3-6a4ebeecee4c)
    (property "Reference" "D2" (id 0) (at 86.36 64.135 0))
    (property "Value" "1N4148" (id 1) (at 86.36 58.42 0))
    (property "Footprint" "m65:diode_v" (id 2) (at 86.36 60.96 0)
      (effects (font (size 1.27 1.27)) hide)
    )
    (property "Datasheet" "~" (id 3) (at 86.36 60.96 0)
      (effects (font (size 1.27 1.27)) hide)
    )
    (pin "1" (uuid 12bdfb06-ca74-483e-bba5-397600207fb0))
    (pin "2" (uuid 2515ce05-f304-4751-b9c3-dde5ef0aeefb))
  )

  (symbol (lib_id "kbd:OLED") (at 92.71 101.346 0) (unit 1)
    (in_bom yes) (on_board yes)
    (uuid f97509e4-c10f-4420-b43c-0cb0911e5127)
    (property "Reference" "OL1" (id 0) (at 89.4842 91.7448 90)
      (effects (font (size 1.2954 1.2954)) (justify left))
    )
    (property "Value" "OLED" (id 1) (at 91.7702 91.7448 90)
      (effects (font (size 1.1938 1.1938)) (justify left))
    )
    (property "Footprint" "m65:OLED_128x32" (id 2) (at 92.71 98.806 0)
      (effects (font (size 1.524 1.524)) hide)
    )
    (property "Datasheet" "" (id 3) (at 92.71 98.806 0)
      (effects (font (size 1.524 1.524)) hide)
    )
    (pin "1" (uuid 41ca65be-de1b-41e5-90ab-5f41e39e4df6))
    (pin "2" (uuid 657467e9-7245-407b-a287-25cee2eaa308))
    (pin "3" (uuid 5cb5978c-3613-43f9-a95b-20c8ad150806))
    (pin "4" (uuid 320a75c7-0a07-40b9-8cd9-2a754d42c141))
  )

  (sheet_instances
    (path "/" (page "1"))
  )

  (symbol_instances
    (path "/9d4ea478-3012-4754-9ec8-08263a9664b1"
      (reference "#PWR01") (unit 1) (value "+BATT") (footprint "")
    )
    (path "/2d5edc10-6e97-4cde-910c-e6b17248ef0a"
      (reference "#PWR02") (unit 1) (value "-BATT") (footprint "")
    )
    (path "/c5b6a456-9eab-49ed-ae80-d7c7944fa956"
      (reference "C1") (unit 1) (value "C") (footprint "m65:C-dual")
    )
    (path "/0437097b-c1bf-4120-9aa8-e6158982a195"
      (reference "C2") (unit 1) (value "C") (footprint "m65:C-dual")
    )
    (path "/5a997121-762f-48ff-968e-060de05f72f7"
      (reference "D1") (unit 1) (value "1N4148") (footprint "m65:diode_v")
    )
    (path "/f8a82feb-eea8-4251-a8d3-6a4ebeecee4c"
      (reference "D2") (unit 1) (value "1N4148") (footprint "m65:diode_v")
    )
    (path "/885a2da2-58d4-442c-92b4-ace551127bfd"
      (reference "D3") (unit 1) (value "1N4148") (footprint "m65:diode_v")
    )
    (path "/4d0eda3c-3542-4283-ba1d-0c7ebeca50b9"
      (reference "D4") (unit 1) (value "1N4148") (footprint "m65:diode_v")
    )
    (path "/25eb12ca-7e36-47e4-9f7a-385677b18469"
      (reference "H4") (unit 1) (value "MountingHole") (footprint "m65:LegoHole_12x8u_4875")
    )
    (path "/298d8d1c-1d87-4051-aa18-27ac6af1515c"
      (reference "J1") (unit 1) (value "battery") (footprint "m65:battery connector - no surface")
    )
    (path "/bb101739-91f1-43a1-97dd-6e0eca2f8f61"
      (reference "J2") (unit 1) (value "rgb") (footprint "m65:connector-rgb")
    )
    (path "/f97509e4-c10f-4420-b43c-0cb0911e5127"
      (reference "OL1") (unit 1) (value "OLED") (footprint "m65:OLED_128x32")
    )
    (path "/57492b58-1bdc-437b-8b93-2a0d5e1a4bff"
      (reference "SW1") (unit 1) (value "sw1") (footprint "m65:CherryMX_ChocV2_1u")
    )
    (path "/ac0ae675-f703-461a-b316-ce70674a06ee"
      (reference "SW2") (unit 1) (value "mx-enc") (footprint "m65:CherryMX_ChocV2_enc_1u")
    )
    (path "/24c591f4-3b69-4861-a8ef-642365f324fa"
      (reference "SW3") (unit 1) (value "SW3") (footprint "m65:CherryMX_ChocV2_1u")
    )
    (path "/be762cce-3e1d-4e49-a5cf-9adfff0167c8"
      (reference "SW4") (unit 1) (value "SW4") (footprint "m65:CherryMX_ChocV2_1u")
    )
    (path "/caf34011-4e0f-4b66-a95c-d1276b7950d9"
      (reference "SW5") (unit 1) (value "on/off") (footprint "m65:switch_slide")
    )
    (path "/d6d5d2e4-5aae-401b-aeb4-5231e8eea113"
      (reference "U1") (unit 1) (value "SeeeduinoXIAOBLE") (footprint "m65:xiao-ble-tht-new")
    )
    (path "/48aa9df2-1a8e-495f-88dd-cfc48e10b841"
      (reference "U2") (unit 1) (value "74HC595") (footprint "m65:74HC595-sop16")
    )
    (path "/e68e89c0-3cc1-4d02-8b51-fa526d17bb54"
      (reference "U3") (unit 1) (value "74HC595") (footprint "m65:74HC595-sop16")
    )
  )
)
